﻿ID,Content 1,Content 2,Content 3,TRUE/FALSE,Notes
0,"**lumia 435 có_lẽ là thiết_bị chạy windows phone có độ_phân_giải camera thấp nhất với camera chính chỉ có 2mp hỗ_trợ quay video wvga ( 480 x 800 ) và camera phụ là vga . ",,
0,Overall sentiment,Negative,
0,camera,thấp,Negative

1,"**[ windows phone ] mở hộp lumia 435 ram 1gb , hai sim giá 1.799.000 đồng ",,
1,Overall sentiment,Unspecified,

2,"**việt_nam có_lẽ là nơi đầu_tiên được microsoft bán chính_thức chiếc lumia 435 có_lẽ do máy được sản_xuất tại việt_nam . ",,
2,Overall sentiment,Unspecified,

3,"**hôm_nay hãng đã ra_mắt người_dùng hai sản_phẩm lumia chạy windows phone 8.1 có giá_rẻ nhất từ trước đến nay . ",,
3,Overall sentiment,Positive,
3,windows phone,giá_rẻ,Positive

4,"**lumia 435 sẽ có giá_bán chính_thức 1.799.000 đồng với 4 màu cơ_bản đó là đen , trắng , màu cam và xanh lá tất_cả các màu này đều là vỏ nhám chứ không bóng như một_số máy lumia 630 mà hãng bán_ra trước_đây . ",,
4,Overall sentiment,Neutral,
4,vỏ,nhám,Negative

5,"**về thiết_kế máy nhìn giống tương_đối giống thiết_kế của máy nokia x và x2 vuông_vức với kích_thước 118.1 x 64.7 x 11.7 mm và trọng_lượng máy là 134,1g . ",,
5,Overall sentiment,Unspecified,

6,"**đặc_biệt lumia 435 vẫn dùng phím điều hướng vật_lý chứ không_phải cảm_ứng như các dòng máy trước lumia 630 hay lumia 730 . ",,
6,Overall sentiment,Positive,

7,"**mặt trước phía_trên vẫn là logo microsoft , loa_thoại và camera trước , ở dưới vẫn là ba phím cơ_bản của windows phone là back , home và tìm_kiếm bing . ",,
7,Overall sentiment,Unspecified,

8,"**cạnh phải là ba phím cứng nguồn và tăng_giảm âm_lượng , cổng sạc được để ở cạnh dưới của máy và jack tai_nghe 3.5mm nằm trên đầu máy . ",,
8,Overall sentiment,Unspecified,

9,"**lumia 435 là sản_phẩm tầm_thấp nhằm tới phân_khúc người_dùng bình_dân như công_nhân , sinh_viên ... mặc_dù có giá thấp nhưng máy vẫn được trang_bị cấu hình tương_đối tốt với chip xử_lý snapdragon 200 xung nhịp 1.2 ghz , bộ_nhớ ram 1gb có_thể thoải_mái chơi các game hay ứng_dụng mà_không lo giới_hạn . ",,
9,Overall sentiment,Positive,
9,giá,thấp,Positive
9,cấu hình,tốt,Positive
9,1gb,thoải_mái,Positive

10,"**bộ_nhớ máy là 8gb kèm khe căm thẻ nhớ lên tới 128gb . ",,
10,Overall sentiment,Unspecified,

11,"**microsoft trang_bị cho máy một màn_hình 4 inch dộ phân_giải wvga ( 480 x 800 ) với mật_độ điểm ảnh là 233ppi với công_nghệ màn_hình lcd . ",,
11,Overall sentiment,Unspecified,

12,"**ngoài_ra còn có tính_năng kiểm_soát độ sáng , phản_hồi xúc_giác , cảm_ứng hướng , chế_độ tăng màu , tốc_độ làm mới 60 hz , dễ lau sạch , sọc rgb . ",,
12,Overall sentiment,Positive,

13,"**lumia 435 được trang_bị viên pin có dung_lượng 1.560mah cho thời_gian chờ tối_đa với 2 sim lên tới 21 giờ , thời_gian thoại 2g là 20,9 giờ và thời_gian vào mạng bằng wifi liên_tục được khoảng 9,4 giờ . ",,
13,Overall sentiment,Unspecified,

14,"**máy bán_ra được chạy sẵn hệ_điều_hành windows phone 8.1 phiên_bản denim với những tính_năng nổi_bật . ",,
14,Overall sentiment,Positive,
14,tính_năng,nổi_bật,Positive

15,"**ngoài_ra lumia 435 cũng_được trang_bị một số tính_năng hay trên các dòng lumia như chạm hai lần để mở khóa , chỉnh độ sáng và màu_sắc hiển_thị trên màn_hình máy . ",,
15,Overall sentiment,Unspecified,

16,"**lumia 435 có_lẽ là thiết_bị chạy windows phone có độ_phân_giải camera thấp nhất với camera chính chỉ có 2mp hỗ_trợ quay video wvga ( 480 x 800 ) và camera phụ là vga . ",,
16,Overall sentiment,Negative,
16,camera,thấp,Negative

17,"**một_số hình_ảnh khác lumia 435 ​ ",,
17,Overall sentiment,Unspecified,

18,"**sau_khi trải nghiệm thấy lumia 435 hoạt_động mượt_mà , cảm_ứng tốt không bị lỗi như chiếc lumia 535 . ",,
18,Overall sentiment,Positive,
18,lumia 435,mượt_mà,Positive
18,cảm_ứng,tốt,Positive

19,"**một sản_phẩm giá tốt với cấu hình tương_đối , hoàn_toàn phù_hợp với những bạn không có nhu_cầu nhiều về camera . ",,
19,Overall sentiment,Positive,
19,giá,tốt,Positive

20,"**cấu hình ngon hơn 530 ",,
20,Overall sentiment,Positive,
20,cấu hình,ngon,Positive

21,"**cấu_hình , giá thơm quá ",,
21,Overall sentiment,Positive,
21,giá,thơm,Positive

22,"**nhìn có_vẻ dày_nhỉ ",,
22,Overall sentiment,Unspecified,

23,"**có 11.7 mm thôi ",,
23,Overall sentiment,Unspecified,

24,"**thế còn 532 có doublr tap k ? hắn có glance , mà thêm double tap thì tốt ",,
24,Overall sentiment,Positive,

25,"**uầy , v ~ thật ",,
25,Overall sentiment,Unspecified,

26,"**made in viet nam_kìa . ",,
26,Overall sentiment,Unspecified,

27,"**like microsoft vì việt_nam luôn được đón sản_phẩm sớm , về_tay anh soft giá ngon hẳn . ",,
27,Overall sentiment,Positive,
27,giá,ngon,Positive

28,"**cũng xấp_xỉ nhau à , được_cái này mất cái kia , chip snapdragon s200 dual core , còn 530 là qual core . ",,
28,Overall sentiment,Unspecified,

29,"**so 530 với 532 thì mới thấy đắng lòng : popo45 : ",,
29,Overall sentiment,Positive,
29,532,mới,Positive

30,"**có bạn nhé . ",,
30,Overall sentiment,Unspecified,

31,"**532 thiếu cái đèn nữa thì thành flagship tầm thấp cmnr ",,
31,Overall sentiment,Negative,

32,"**wp thì dual core vẫn mượt chán , con này ram rom đều gấp_đôi 530 , giá lại rẻ hơn 200k ( con_số khá lớn vs sinh_viên ) , ko quan_trọng camera thì con này hơn đứt ( lại có cam trước ) : popo45 : ",,
32,Overall sentiment,Positive,
32,giá,rẻ,Positive

33,"**p // s mấy hôm_trước vừa tư_vấn thằng bạn mua 530 , nó đi đá_bóng cho trường đc thưởng 2tr đem_ra mua hết , giờ nó biết con này thì chắc nó đem mình ra làm bóng_đá quá : popo19 : ",,
33,Overall sentiment,Positive,

34,"**đây là bảng so_sánh cấu hình chi_tiết 532 , 432 và 535 cho bác nào cần : popo67 : ",,
34,Overall sentiment,Unspecified,

35,"**http : //www.phonearena.com // phones // co ... 435 , microsoft lumia 535/phones/9093,9092,8989 ",,
35,Overall sentiment,Unspecified,

36,"**k thể hiểu nổi ms cho ba phím điều hướng là phím cứng trong_khi 730 là phím ảo.nhọ ",,
36,Overall sentiment,Unspecified,

37,"**có vẻ đắng quá : popo28 : ",,
37,Overall sentiment,Unspecified,

38,"**không đắng bằng em vừa mất máy thì ms giơi thiệu win 10 ",,
38,Overall sentiment,Unspecified,

39,"**đhs nó cắt 3 phím điều hướng trên con 730 , còn con này nó lại có : v ",,
39,Overall sentiment,Unspecified,

40,"**cái giá quá tốt cho một smartphone 1 gb ram , kiểu này điện_thoại feature phone khó_sống nổi rồi , giá này cho học_sinh sinh_viên , hoặc mua_về làm điện_thoại chữa_cháy cũng tốt : popo28 : ",,
40,Overall sentiment,Positive,
40,giá,tốt,Positive

41,"**mượt khi lướt ngoài giao_diện hay web thôi , chứ ram 1g mà dùng con cpu này chơi game chắc lag tung chảo vì bị set cấu hình cao cho ram 1g ( ví_dụ như asphalt 8 ) . ",,
41,Overall sentiment,Positive,
41,cấu hình,cao,Positive

42,"**camera thì coi như có cắt camera sau ra chia_đều thành cái trước : popo20 : . ",,
42,Overall sentiment,Unspecified,

43,"**ư ́ c chế nhất_là cái vụ rom và tính_năng double tap thôi : popo45 : ",,
43,Overall sentiment,Unspecified,

44,"**tầm_máy giá_thế này thì anh mic chắc chủ_yếu đánh_vào phân_khúc "" các cụ "" , mua chủ_yếu để lướt fb ngắm anh con_cái , hoặc để chat chit viber với con_gái đi lấy_chồng : rofl : . ",,
44,Overall sentiment,Positive,

45,"**mà với cái giá thế này chơi được asphalt 8 thì có giật tí cũng chả sao bác_a . ",,
45,Overall sentiment,Unspecified,

46,"**thử so với hàng android mà tầm giá này xem có con nào ngon_lành được vậy không , chưa_kể sắp tới còn được lên win10 : rofl : ",,
46,Overall sentiment,Unspecified,

47,"**giá mà wp có grab taxi thì xúc ngay 1 con tặng phụ_huynh : popo09 : ",,
47,Overall sentiment,Unspecified,

48,"**muốn cho ms 1 phát quá : popo10 : ",,
48,Overall sentiment,Unspecified,

49,"**chán k muốn bình_luận 620 ",,
49,Overall sentiment,Unspecified,

50,"**525 ngon hơn : rofl : ",,
50,Overall sentiment,Positive,
50,525,ngon,Positive

51,"**đhs 730 lại 3 phím điều hướng_ảo còn con cùi bắp này lại đc bên_ngoài ? ",,
51,Overall sentiment,Unspecified,

52,"**: popo10 : ",,
52,Overall sentiment,Unspecified,

53,"**mới hôm_qua ra tgdd xách e 730 về vẫn chưa quen đc ",,
53,Overall sentiment,Positive,

54,"**giá tốt . ",,
54,Overall sentiment,Positive,
54,giá,tốt,Positive

55,"**nhưng vẫn dùng 520 ",,
55,Overall sentiment,Unspecified,

56,"**giống y chang em x nhỉ : popo28 : ",,
56,Overall sentiment,Unspecified,

57,"**ko xem thì thôi , xem lại ức thêm ",,
57,Overall sentiment,Unspecified,

58,"**đúng là đồ công_nghệ theo thời gian. sinh sau đẻ_muộn hơn sinh trước là điểu dễ hiễu , nhưng giá quá rẻ mà_lại có cấu hình ngang có_khi còn hơn mấy e đời trước giá_thành cao hơn ",,
58,Overall sentiment,Positive,
58,giá,rẻ,Positive
58,giá_thành,cao,Negative

59,"**: popo22 : ",,
59,Overall sentiment,Unspecified,

60,"**11.7mm : popo57 : ",,
60,Overall sentiment,Unspecified,

61,"**sao k là 12.7mm cho chất : rofl : ",,
61,Overall sentiment,Unspecified,

62,"**thực_ra có 3 phím ảo cũng hay bạn ạ , mình lúc_đầu cũng không quen lắm . ",,
62,Overall sentiment,Unspecified,

63,"**nhưng giờ thì dùng cũng ok . ",,
63,Overall sentiment,Unspecified,

64,"**: popo20 : : popo20 : : popo20 : ko có gì để chê ngoài cái logo microsoft. . ",,
64,Overall sentiment,Neutral,

65,"**cầm_chắc_tay , cơ mà thời này còn ai dùng camera 2.0 nữa đâu , ít_ra phải 3.2 mới chụp đc ",,
65,Overall sentiment,Positive,

66,"**ngon ! nhìn có_vẻ chắc_chắn nhi ! ",,
66,Overall sentiment,Positive,

67,"**quyết tăng thị_phần nè ",,
67,Overall sentiment,Unspecified,

68,"**search làm j có grabtaxi nhỉ ? ",,
68,Overall sentiment,Unspecified,

69,"**cấu hình hơn_hẳn 525 ",,
69,Overall sentiment,Unspecified,

70,"**chán vl : popo77 : ",,
70,Overall sentiment,Unspecified,

71,"**tên đầy_đủ là graptaxi : book a taxi ",,
71,Overall sentiment,Positive,

72,"**cái_đó thì mình chịu bạn ơi . ",,
72,Overall sentiment,Unspecified,

73,"**mình cài trên 920 bình_thường ",,
73,Overall sentiment,Unspecified,

74,"**hơn đâu mà hơn . ",,
74,Overall sentiment,Unspecified,

75,"**phần_cứng thua 525 nhiều . ",,
75,Overall sentiment,Positive,
75,525,nhiều,Negative

76,"**532 còn xấp_xỉ được . ",,
76,Overall sentiment,Unspecified,

77,"**thời_gian chờ 2 sim có 21h , nhầm không vậy ? ",,
77,Overall sentiment,Unspecified,

78,"**giá rẻ nhưng không có sự_đột_phá như zenphone ",,
78,Overall sentiment,Positive,
78,giá,rẻ,Positive

79,"**klq. fb beta bị gỡ rồi à các bác , vào kô dc tìm trên store cũng kô cho cài_đặt ",,
79,Overall sentiment,Unspecified,

80,"**cpu mạnh hơn 525 ",,
80,Overall sentiment,Positive,
80,cpu,mạnh,Positive

81,"**phải làm em này để thay em motorola hai sim 2 này mới_đươc ",,
81,Overall sentiment,Unspecified,

82,"**giá thơm , cáu hình cũng ổn : popo28 : ",,
82,Overall sentiment,Positive,
82,giá,thơm,Positive

83,"**theo mình với tầm_giá này thì mình cũng không đòi_hỏi gì nhiều hơn , mình có trải nghiệm asphatl 8 trên galaxy a5 , tầm 9tr mà chạy game này không nỗi , cứ đứng ở màn_hình gameloft ( test ở tgdd ) . ",,
83,Overall sentiment,Positive,

84,"**mình chỉ cay 2 con này bàn_phím vật_lý còn 730 của mình lại bàn_phím ảo ! ",,
84,Overall sentiment,Unspecified,

85,"**cơ mà mình vẫn thích bàn_phím vật_lý hơn ! ",,
85,Overall sentiment,Positive,

86,"**bác nói dug vl sao bag 525 thần_thánh dc bọn cùi_bẵp này treo dc modern combat 5 moi_lạ ",,
86,Overall sentiment,Positive,
86,525,thần_thánh,Positive

87,"**con này chỉ dùng snapdragon 200 và có 2 nhân à . ",,
87,Overall sentiment,Unspecified,

88,"**ko mạnh hơn con s4 của 525 dc đâu . ",,
88,Overall sentiment,Positive,

89,"**nghi_vấn dis game ngay và luôn . ",,
89,Overall sentiment,Unspecified,

90,"**sử_dụng bảng mod cho ram 512 chắc được . ",,
90,Overall sentiment,Unspecified,

91,"**con 520 giờ thấy hết thần_thánh rồi , ghẻ chịu ko_nổi , đi_thi anh văn_dùng cái bing translator thế éo nào mới dịch vài phát cái treo luôn , lúc_trước dùng ngon mà wp ngày_càng cập_nhật càng dở , dùng bing dịch treo_mãi ",,
91,Overall sentiment,Positive,
91,520 giờ,thần_thánh,Negative

92,"**sao máy mình có caicâú hinhánh sáng_nhỉ ",,
92,Overall sentiment,Unspecified,

