﻿ID,Content 1,Content 2,Content 3,TRUE/FALSE,Notes
0,"**https : //www.tinhte.vn // threads // samsung- dang-ki-bao-ho-thuong-hieu-galaxy - j3- j5- j7- e3 - va-phan-mem - nudge.2419558/ ",,
0,Overall sentiment,Unspecified,

1,"**samsung đăng kí bảo_hộ thương_hiệu galaxy j3 , j5 , j7 , e3 và "" phần_mềm "" nudge ",,
1,Overall sentiment,Unspecified,

2,"**samsung mới_đây đã đăng kí 11 thương_hiệu mới với văn_phòng bản_quyền và thương_hiệu mỹ ( uspto ) , trong_đó có một_số đã xuất_hiện trong dòng galaxy a cũng_như chiếc grand max mới . ",,
2,Overall sentiment,Positive,

3,"**thú_vị hơn có_lẽ phải nhắc_đến những cái_tên như galaxy j3 , j5 , j7 và galaxy e3 . ",,
3,Overall sentiment,Positive,

4,"**nhiều khả_năng đây là các dòng thiết_bị mới mà samsung sẽ ra_mắt trong tương_lai . ",,
4,Overall sentiment,Positive,

5,"**ngoài_ra còn có một thương_hiệu đáng chú_ý là samsung nudge , nó được mô_tả như_sau : "" phần_mềm dùng để ghi_nhận các cử_chỉ , gương_mặt và giọng_nói để phục_vụ cho việc điều_khiển mà không chạm vào máy_tính , điện_thoại , đồng_hồ thông_minh và các thiết_bị di_động // thiết_bị đa phương_tiện khác "" . ",,
5,Overall sentiment,Unspecified,

6,"**có_vẻ như nudge là một tính_năng chứ_không_phải một thiết_bị mới , và biết_đâu nó sẽ xuất_hiện trong_đợt cập_nhật kế_tiếp của dòng galaxy s hay galaxy note thì sao ? ",,
6,Overall sentiment,Positive,

7,"**nguồn : uspto ( 1 ) , ( 2 ) , ( 3 ) , ( 4 ) , phandroid ​ ",,
7,Overall sentiment,Unspecified,

8,"**samsung bá_đạo quá ",,
8,Overall sentiment,Unspecified,

9,"**he he comment đầu ",,
9,Overall sentiment,Unspecified,

10,"**giảm 30 % số thiết_bị , vậy sẽ cắt những cái nào_đây ",,
10,Overall sentiment,Unspecified,

11,"**sung có khác.. ko gì là ko có_thể với anh ấy. . ",,
11,Overall sentiment,Unspecified,

12,"**chúc sung thành_công nudge ",,
12,Overall sentiment,Positive,

13,"**vấn_đề là có_ai thèm lấy mấy cái_đó không mà bảo_hộ ? ",,
13,Overall sentiment,Unspecified,

14,"**đã làm_cái gì mới , có_vẻ hay_ho thì sẽ đăng kí , biết_đâu ông to_mặt bự nào_đó mang lên thiết_bị mình và la_lên đó là bước đột_phá lớn trong công_nghệ dù sam đã làm từ mấy đời rồi . ",,
14,Overall sentiment,Positive,

15,"**- _ - cắt_giảm ... việt nam , trung_quốc_đông zân vậy_mà còn kế_hoạch_hóa thành_công_thế mà sam : | ",,
15,Overall sentiment,Unspecified,

17,"**đúng là sung quá , cắt_giảm rồi mà vẫn cứ phải sòn_sòn hơn chục đứa : d ",,
17,Overall sentiment,Unspecified,

18,"**binh_đoàn của samsung từ "" ngân_hà "" đang tến đánh_xuống "" địa_ngục "" ",,
18,Overall sentiment,Unspecified,

20,"**ss tạo bản_quyền là để sx ",,
20,Overall sentiment,Unspecified,

21,"**apple tạo bản_quyền là để nổi xong để xọt rác : 3 ",,
21,Overall sentiment,Unspecified,

22,"**đc ... ra nhìu vào ss ... cho mấy cha nội trong cái tinh_tế này hát cái điệp_khúc đẻ nhìu bể cổ_họng chết mọe nuôn ha_ha ... ",,
22,Overall sentiment,Positive,

23,"**nhưng mà tò_mò dòng j nhỉ . ",,
23,Overall sentiment,Unspecified,

24,"**hay là đàn_em cũa galaxy j ",,
24,Overall sentiment,Unspecified,

25,"**sam sung = sòn_sòn = sàm_sàm : ) , : p ",,
25,Overall sentiment,Unspecified,

26,"**tiếc là những gì mới do sam sàm nghĩ_ra chả có_ma nào làm_theo nên bác kia nói cũng có_phần đúng : rolleyes : ",,
26,Overall sentiment,Positive,

27,"**chuẩn_bị lại loạn cào_cào galaxy . ",,
27,Overall sentiment,Unspecified,

28,"**ngày trước là chỉ ăn_theo dòng s với note. ở_lại sẽ ăn theo a , e , j , z ... .mỗi dòng thêm chục em lớn_bé . ",,
28,Overall sentiment,Unspecified,

29,"**loạn galaxy thật rồi. : rolleyes : ",,
29,Overall sentiment,Unspecified,

30,"**đọc xong thì rút_ra kết_luận : các hãng chỉ có 2 kiểu đặt_tên . ",,
30,Overall sentiment,Unspecified,

31,"**một làm đánh_số . ",,
31,Overall sentiment,Unspecified,

32,"**hai là đánh chữ . ",,
32,Overall sentiment,Unspecified,

33,"**nếu ko_phải là fan thì đúng là chẳng thể_nào nhớ nổi. = = ",,
33,Overall sentiment,Unspecified,

34,"**theo mình các hãng nhiều sản_phẩm thì nokia là đặt_tên dễ hình_dung nhất . ",,
34,Overall sentiment,Positive,

35,"**chứ giờ sony , samsung coi như thua ... chẳng_biết đường nào mà lần . ",,
35,Overall sentiment,Unspecified,

36,"**sung học cách đặ tên sony , vừa để phủ kín alphabet , vừa để khách_hàng dễ nhớ . ",,
36,Overall sentiment,Unspecified,

37,"**galaxy j cấu hình ngon_phết ",,
37,Overall sentiment,Unspecified,

38,"**mấy cái đt vứt ko ai nhặt mà cũng đi đăng_ký "" bảo_hộ thương_hiệu "" ",,
38,Overall sentiment,Unspecified,

39,"**mượn hình danh_hài hoài linh_làm logo được_đấy sám_sùng ",,
39,Overall sentiment,Unspecified,

40,"**galaxy là ngân_hà mà , ngân_hà thì sao đếm hết hehe ",,
40,Overall sentiment,Unspecified,

41,"**miệng của tụi nó dày lắm ",,
41,Overall sentiment,Unspecified,

42,"**thôi gom lúa mua note 4 cho lành , không bị lẫn trong đóng galaxy với a với j . ",,
42,Overall sentiment,Positive,

44,"**- tên sp quá dài , khó nhớ ",,
44,Overall sentiment,Neutral,

45,"**- quá_nhiều sản_phẩm ",,
45,Overall sentiment,Unspecified,

46,"**= cho_nên rất ngán khi chọn sp samsung ",,
46,Overall sentiment,Unspecified,

48,"**cố_lên samsung sắp đầy bảng 24 chữ_cái rồi = ) ) ",,
48,Overall sentiment,Unspecified,

49,"**theo mình thì nên như zầy. . ",,
49,Overall sentiment,Unspecified,

50,"**nhật thì lấy tên như : honda , kawa , yamaha , vvv. . ",,
50,Overall sentiment,Unspecified,

51,"**còn anh xèn thì : upa ! , omo. ! . . ",,
51,Overall sentiment,Unspecified,

52,"**samsung 3-5-7 thì_phải a3 , a5 , a7 giờ lại e và j ",,
52,Overall sentiment,Unspecified,

53,"**còn iphone theo kiểu xs ",,
53,Overall sentiment,Unspecified,

54,"**nokia thì 1xx,2xx3xx,4xx , . ",,
54,Overall sentiment,Unspecified,

59,"**nhưng sao hấp_dẫn bằng anh gu gồ theo kiểu 69 được ",,
59,Overall sentiment,Positive,

60,"**sao lại ko bạn. ý_tưởng là tiền_đó . ",,
60,Overall sentiment,Unspecified,

61,"**cái này đúng nè. cứ_như iphone đếm số , thêm s cho nó lành . ",,
61,Overall sentiment,Unspecified,

62,"**tên laptop với tv là khó_chịu nhất ... laptop sửa toàn phải lật đít lên xem . ",,
62,Overall sentiment,Negative,
62,tv,khó_chịu,Negative

63,"**toàn cao_thủ soi mói móc họng nhau nhỉ = ) ) .buồn cười . ",,
63,Overall sentiment,Unspecified,

64,"**p // s : ra nhiều sản_phẩm thì người_dùng có nhiều trải nghiệm từ bình_dân đến cao_cấp bận_tâm làm_gì : ) . ",,
64,Overall sentiment,Positive,

65,"**may_mà chưa đăng_ký a3 , a4 , a5 , ko thì dân_tình khỏi xài giấy a3 , a4 , a5 ",,
65,Overall sentiment,Unspecified,

