﻿ID,Content 1,Content 2,Content 3,TRUE/FALSE,Notes
0,"**http : //genk.vn // mobile // can- canh-bo-doi-lumia - 435532 - gia-re-vua-ra-mat-tai-viet-nam - 20150126172528055.chn ",,
0,Overall sentiment,Unspecified,

1,"**cận_cảnh bộ đôi lumia 435/532 giá_rẻ vừa ra_mắt tại việt_nam ",,
1,Overall sentiment,Positive,

2,"**bộ đôi smartphone đầu_tiên của microsoft cho năm 2015 với cấu hình thấp , giá_bán rẻ và đều được sản_xuất tại việt_nam . ",,
2,Overall sentiment,Neutral,
2,cấu hình,thấp,Negative

3,"**vài phút trước_đây , microsoft đã tung_ra bộ đôi smartphone giá_rẻ mới cho thị_trường việt_nam là lumia 435 và lumia 532 . ",,
3,Overall sentiment,Positive,

4,"**nhắm tới đối_tượng người_dùng lần_đầu_tiên tiếp_cận với smartphone , hai smartphone này có giá_bán khá_tốt , chỉ 1.799.000 đồng đối_với lumia 435 và 2.199.000 đồng cho lumia 532 . ",,
4,Overall sentiment,Unspecified,

5,"**thiết_kế của bộ đôi smartphone này khá quen_thuộc khi sở_hữu những đường_nét của chiếc nokia x trước_đây . ",,
5,Overall sentiment,Unspecified,

6,"**để có_thể phân_biệt hai thiết_bị này , nhà_sản_xuất đã thiết_kế lumia 532 với khung viền bóng và mặt lưng nhám , trong_khi lumia 435 sở_hữu nắp sau nhám hoàn_toàn . ",,
6,Overall sentiment,Negative,

7,"**cả hai đều được trang_bị màn_hình 4 inch , độ_phân_giải là 480 x 800 điểm ảnh và đặc_biệt là đều được sản_xuất tại việt_nam . ",,
7,Overall sentiment,Positive,
7,ảnh,đặc_biệt,Positive

8,"**cận_cảnh lumia 532 : ",,
8,Overall sentiment,Unspecified,

9,"**về cấu_hình , cả_hai đề sở_hữu bộ xử snapdragon 200 xung nhịp 1,2 ghz nhưng lumia 532 có 4 nhân xử_lý trong_khi với lumia 435 con_số này chỉ dừng_lại ở 2 . ",,
9,Overall sentiment,Unspecified,

10,"**camera của lumia 432 cũng có độ_phân_giải thấp hơn , chỉ 2 mp nhưng hỗ_trợ lấy nét tự_động , trong_khi camera 5 mp của lumia 532 chỉ có lấy nét cố_định ( fixed - focus ) . ",,
10,Overall sentiment,Positive,
10,độ_phân_giải,thấp,Negative

11,"**microsoft khá ưu_ái cho bộ đôi smartphone giá_rẻ này khi đã tích_hợp camera trước vga , hỗ_trợ cho gọi skype . ",,
11,Overall sentiment,Unspecified,

12,"**cả hai đều sử_dụng pin bl - 5j có dung_lượng là 1.560 mah . ",,
12,Overall sentiment,Unspecified,

13,"**mở hộp lumia 435 : ",,
13,Overall sentiment,Unspecified,

