﻿ID,Content 1,Content 2,Content 3,TRUE/FALSE,Notes
0,"**ra_mắt sau iphone 6 plus khoảng nửa_năm , galaxy s6 sẽ được trang_bị những gì để nổi_bật hơn đối_thủ lớn iphone 6 plus . ",,
0,Overall sentiment,Positive,

1,"**truyền_thông hàn_quốc gần_đây có dẫn lời một nhân_sự cấp cao đang làm_việc cho samsung xác_nhận về việc samsung galaxy s6 sẽ được trình_làng vào ngày 2 tháng 3 tới , trong khuôn_khổ sự_kiện mwc 2015 . ",,
1,Overall sentiment,Unspecified,

2,"**cận kề thời_điểm s6 được giới_thiệu , không ít thông_tin rò rỉ về thiết_bị này đã xuất_hiện mang tới cho cộng_đồng quan_tâm đến sản_phẩm của samsung những hình_dung đầu_tiên về một trong những smartphone android đáng chú_ý nhất . ",,
2,Overall sentiment,Negative,

3,"**dĩ_nhiên , khi galaxy s6 ra_mắt , người_ta sẽ nói rất nhiều đến cuộc đối_đầu giữa sản_phẩm này với sản_phẩm iphone mới của apple . ",,
3,Overall sentiment,Positive,
3,iphone,mới,Positive

4,"**vậy nếu những tin_đồn gần_đây là xác_thực , chúng_ta sẽ có một galaxy s6 như_thế_nào so với iphone 6 plus ? ",,
4,Overall sentiment,Unspecified,

7,"**hình_dung galaxy s6 dựa_theo tin đồn đọ sức cùng iphone 6 plussamsung galaxy note 4 đã có màn_hình qhd nên khả_năng s6 cũng có độ_phân_giải là rất cao . ",,
7,Overall sentiment,Positive,
7,độ_phân_giải,cao,Positive

8,"**samsung galaxy s6 được cho là sẽ có màn_hình super amoled 5,2 inch cùng độ_phân_giải 2.560 x 1.440 pixel ( cho mật_độ điểm ảnh 554ppi ) . ",,
8,Overall sentiment,Unspecified,

9,"**trong_khi_đó , iphone 6s plus sử_dụng công_nghệ màn_hình ips lcd , kích_thước 5,5 inch và độ_phân_giải 1.920 x 1.080 pixel ( cho mật_độ điểm ảnh 401ppi ) . ",,
9,Overall sentiment,Unspecified,

10,"**như_vậy , siêu_phẩm của samsung có_thể sẽ có màn_hình nhỏ hơn đồng_thời mang đến cho người_dùng mật_độ điểm ảnh cao hơn . ",,
10,Overall sentiment,Neutral,
10,màn_hình,nhỏ,Negative
10,mật_độ điểm ảnh,cao,Positive

11,"**thực_tế , độ_phân_giải qhd đã được kỳ_vọng từ thời samsung galaxy s5 , dù vậy năm_ngoái samsung đã không hiện_thực_hóa điều này . ",,
11,Overall sentiment,Unspecified,

13,"**vi xử_lý và hệ_điều_hành ",,
13,Overall sentiment,Unspecified,

14,"**hình_dung galaxy s6 dựa_theo tin đồn đọ sức cùng iphone 6 plus - 1thời gian gần_đây rộ lên thông_tin cho_rằng chip snapdragon 810 gặp vấn_đề về xử_lý lượng nhiệt sản_sinh trong quá_trình sử_dụng . ",,
14,Overall sentiment,Unspecified,

15,"**một_số_báo_cáo đăng_tải gần_đây cho_biết có_thể samsung sẽ hoàn_toàn sử_dụng chip xử_lý exynos trên samsung galaxy s6 , tuy_nhiên nhiều khả_năng ông_lớn công_nghệ hàn_quốc vẫn sẽ sử_dụng chip đến từ qualcomm và tất_nhiên sẽ là dòng chip mới nhất qualcomm snapdragon 810 ( với tốc_độ được cho là sự_kết_hợp của nhân cortex - a53 tốc_độ 1,3 ghz và nhân cortex - a57 tốc_độ 1,9ghz ) . ",,
15,Overall sentiment,Positive,
15,samsung galaxy s6,nhiều,Positive
15,chip,mới,Positive

16,"**hiện_nay , apple iphone 6s được trang_bị chip lõi đôi apple a8 , tốc_độ 1,4ghz , tuy_nhiên thông_số khiêm_tốn này chưa_bao_giờ là một bất_lợi của apple khi nền_tảng ios 8 luôn có khả_năng tận_dụng tốt nhất tài_nguyên máy . ",,
16,Overall sentiment,Positive,

17,"**về hệ_điều_hành của samsung galaxy s6 , máy có khả_năng cao được cài sẵn android 5.0 khi lên kệ . ",,
17,Overall sentiment,Positive,

18,"**một thông_tin vui nữa liên_quan đến phần_mềm của siêu_phẩm này cũng phải kể đến việc gần_đây samsung được cho là đang tiết_chế mạnh tính_năng cũng_như giao_diện của touchwiz ui . ",,
18,Overall sentiment,Positive,

19,"**hãng này theo đó sẽ nỗ_lực mang đến một trải nghiệm "" ngang_tầm nexus 6 "" cho người_dùng . ",,
19,Overall sentiment,Unspecified,

21,"**ram , bộ_nhớ và pin ",,
21,Overall sentiment,Unspecified,

22,"**hình_dung galaxy s6 dựa_theo tin đồn đọ sức cùng iphone 6 plus - 2samsung đã sẵn_sàng để đưa samsung galaxy s trở lại cuộc_đua cấu hình ? ",,
22,Overall sentiment,Unspecified,

23,"**samsung galaxy s6 có_thể sẽ được trang_bị 3gb ram và 32gb bộ_nhớ trong cùng_viên pin dung_lượng 3.300 mah . ",,
23,Overall sentiment,Unspecified,

24,"**một_số thông_tin gần_đây về thiết_kế mới của s6 cho_rằng đây sẽ là dòng galaxy s đầu_tiên không hỗ_trợ thẻ nhớ microsd . ",,
24,Overall sentiment,Positive,
24,thiết_kế,mới,Positive

25,"**iphone 6 plus có 1gb ram cùng ba lựa_chọn về bộ_nhớ 16/64/128gb không_thể mở_rộng thêm . ",,
25,Overall sentiment,Unspecified,

26,"**ngoài_ra , phablet đầu_tiên của apple có pin dung_lượng 2.915 mah . ",,
26,Overall sentiment,Unspecified,

29,"**hình_dung galaxy s6 dựa_theo tin đồn đọ sức cùng iphone 6 plus - 3camera sau khoảng 20mp đang là thông_số cao nhất trong phân_khúc smartphone android . ",,
29,Overall sentiment,Positive,

30,"**các thông_tin gần_đây đều cho_rằng galaxy s6 sẽ có camera 20mp cùng camera trước 5mp . ",,
30,Overall sentiment,Unspecified,

31,"**đây là mức nâng_cấp ấn_tượng từ_thông_số 16mp và 2mp trên s5 . ",,
31,Overall sentiment,Positive,

32,"**về phía smartphone của apple , mặc_dù vẫn mang lại trải nghiệm chụp_hình được người_dùng đánh_giá cao , iphone 6 plus chỉ có camera 8mp . ",,
32,Overall sentiment,Positive,

33,"**dù vậy , đây là dòng iphone duy_nhất hiện_nay có khả_năng chống rung quang_học . ",,
33,Overall sentiment,Unspecified,

34,"**những thay_đổi ấn_tượng về camera trên iphone nhiều khả_năng sẽ chỉ xuất_hiện trên thế_hệ iphone năm 2015 . ",,
34,Overall sentiment,Positive,
34,iphone,nhiều,Positive

35,"**( tổng_hợp ) ",,
35,Overall sentiment,Unspecified,

