﻿ID,Content 1,Content 2,Content 3,TRUE/FALSE,Notes
0,"**đánh_giá samsung galaxy note 4 : khi ông lớn xứ hàn_đáp trả ! ",,
0,Overall sentiment,Positive,

1,"**image - 1412096174 - image - 1412092823 - samsung-galaxy-note - 4 - techz - 28 [ 1 ] ",,
1,Overall sentiment,Unspecified,

3,"**trong năm nay , samsung lại tiếp_tục ‘ gây bão ’ với phiên_bản note thế_hệ mới . ",,
3,Overall sentiment,Positive,

4,"**không chỉ trang_bị cấu hình mạnh_mẽ bậc_nhất hiện_nay , thiết_kế của galaxy note 4 cũng đã ‘ thoát_xác ’ ngoạn_mục . ",,
4,Overall sentiment,Positive,
4,cấu hình,mạnh_mẽ,Positive

5,"**dòng sản_phẩm galaxy note đã tạo_ra một xu_hướng mới với thiết_kế màn_hình lớn từ những năm về trước . ",,
5,Overall sentiment,Positive,
5,màn_hình,lớn,Positive

6,"**không chỉ đơn_thuần là một thiết_kế lớn , ông ‘ lớn ’ đến từ hàn_quốc còn thổi vào đó rất nhiều những tính_năng hay_ho , hữu_ích nhằm giúp người_dùng dễ_dàng hơn trong thao_tác , đặc_biệt khi sử_dụng với bút s pen . ",,
6,Overall sentiment,Positive,
6,thiết_kế,lớn,Positive
6,tính_năng,hữu_ích,Positive

7,"**image 1412092831 samsung galaxy note 4 techz 01 đánh_giá samsung galaxy note 4 : khi ông lớn xứ hàn_đáp trả ! ",,
7,Overall sentiment,Positive,

8,"**samsung galaxy note 4 với nhiều cải_tiến cả về thiết_kế lẫn cấu hình . ",,
8,Overall sentiment,Positive,
8,samsung galaxy note 4,nhiều,Positive

9,"**ảnh : hồng_long ",,
9,Overall sentiment,Unspecified,

10,"**cũng đã có rất nhiều nhà_sản_xuất thử ‘ dấn_thân ’ vào phát_triển mẫu smartphone màn_hình lớn như lg với lg optimus g pro , sony xperia z ultra , htc one max tuy_nhiên hiệu_ứng khách_hàng và doanh_thu các mẫu sản_phẩm trên không_thể vượt_qua cái bóng lớn của dòng note . ",,
10,Overall sentiment,Positive,
10,màn_hình,lớn,Positive

11,"**và trong lần ra_quân này , samsung tiếp_tục ‘ khuấy đảo ’ thị_trường phablet với một note 4 cứng hơn , thiết_kế đẹp và sang_trọng hơn . ",,
11,Overall sentiment,Positive,
11,thiết_kế,đẹp,Positive

12,"**còn bây_giờ , mời bạn cùng đến với bài đánh_giá mẫu sản_phẩm này . ",,
12,Overall sentiment,Unspecified,

14,"**image 1412092883 samsung galaxy note 4 techz 11 đánh_giá samsung galaxy note 4 : khi ông lớn xứ hàn_đáp trả ! ",,
14,Overall sentiment,Positive,

15,"**samsung galaxy note 4 sở_hữu kiểu dáng vuông_vắn hơn so với các phiên_bản tiền_nhiệm . ",,
15,Overall sentiment,Unspecified,

16,"**ảnh : hồng_long ",,
16,Overall sentiment,Unspecified,

17,"**nếu bạn đã từng có dịp cầm trên tay mẫu galaxy alpha , chắc_hẳn bạn sẽ cho_rằng galaxy note 4 một phiên_bản ‘ phóng to ’ của thiết_bị này , với khung viền nhôm vát kim_cương rất đẹp và sắc_nét . ",,
17,Overall sentiment,Neutral,

18,"**bên_cạnh_đó , samsung cũng làm máy vuông_vức hơn so với các bậc tiền_nhiệm của mình , chính vì điều đó kết_hợp cùng yếu_tố chất_liệu thiết_kế mới , note 4 khó ‘ thuần phục ’ hơn so với iphone 6 plus . ",,
18,Overall sentiment,Neutral,
18,thiết_kế,mới,Positive
18,note 4,khó,Negative

19,"**nhưng bù_lại bạn sẽ cảm_thấy được sự_cứng_cáp và chắc_chắn khi cầm_nắm . ",,
19,Overall sentiment,Unspecified,

20,"**các chi_tiết còn_lại đều được samsung ‘ trau_chuốt ’ khá cẩn_thận và tỉ_mỉ như các phím tăng_giảm âm_lượng , phím nguồn , lỗ micro , jack cắm tai_nghe . ",,
20,Overall sentiment,Positive,
20,samsung,trau_chuốt,Positive

21,"**image 1412093014 samsung galaxy note 4 techz 37 đánh_giá samsung galaxy note 4 : khi ông lớn xứ hàn_đáp trả ! ",,
21,Overall sentiment,Positive,

22,"**samsung galaxy note 4 và iphone 6 plus là 2 đối_thủ ‘ nặng_ký ’ vào thời_điểm hiện_tại . ",,
22,Overall sentiment,Unspecified,

23,"**ảnh : hồng_long ",,
23,Overall sentiment,Unspecified,

24,"**samsung galaxy note 4 đã thực_sự ‘ thoát_xác ’ với chất_liệu khung nhôm rắn_chắc , sắc_sảo và sang_trọng ",,
24,Overall sentiment,Positive,

25,"**cũng giống như iphone 6 plus , samsung đã gia_cố thêm cho phần màn_hình được làm_nổi hơn chút , và nó được bo dần xuống các cạnh của máy , tuy_nhiên khu_vực tiếp_xúc giữa màn_hình và cạnh_máy vẫn chưa thực_sự liền_lạc lắm , tạo_ra các khoảng hở trông khá khó_chịu . ",,
25,Overall sentiment,Negative,

26,"**màn hình máy được samsung cách_điệu chút_ít hơn với các vạch 3d li_ti nằm_ngang chứ không hoàn_toàn trống trơn như đối_thủ ‘ sừng_sỏ ’ 6 plus . ",,
26,Overall sentiment,Unspecified,

27,"**image 1412092835 samsung galaxy note 4 techz 02 đánh_giá samsung galaxy note 4 : khi ông lớn xứ hàn_đáp trả ! ",,
27,Overall sentiment,Positive,

28,"**cạnh phải là phím_nguồn ",,
28,Overall sentiment,Unspecified,

29,"**image 1412092839 samsung galaxy note 4 techz 03 đánh_giá samsung galaxy note 4 : khi ông lớn xứ hàn_đáp trả ! ",,
29,Overall sentiment,Positive,

30,"**khung nhôm note 4 được vát kim_cương rất sắc_sảo và rắn_chắc ",,
30,Overall sentiment,Positive,

31,"**image 1412092846 samsung galaxy note 4 techz 05 đánh_giá samsung galaxy note 4 : khi ông lớn xứ hàn_đáp trả ! ",,
31,Overall sentiment,Positive,

32,"**cạnh trái là phím tăng_giảm âm_lượng ",,
32,Overall sentiment,Unspecified,

33,"**image 1412092858 samsung galaxy note 4 techz 06 đánh_giá samsung galaxy note 4 : khi ông lớn xứ hàn_đáp trả ! ",,
33,Overall sentiment,Positive,

34,"**đỉnh_đầu là jack cắm tai_nghe , cổng hồng_ngoại và lỗ_mic ",,
34,Overall sentiment,Unspecified,

35,"**image 1412092845 samsung galaxy note 4 techz 04 đánh_giá samsung galaxy note 4 : khi ông lớn xứ hàn_đáp trả ! ",,
35,Overall sentiment,Positive,

36,"**cạnh dưới là cổng microusb , lỗ_mic và bút s - pen ",,
36,Overall sentiment,Unspecified,

37,"**image 1412092862 samsung galaxy note 4 techz 07 đánh_giá samsung galaxy note 4 : khi ông lớn xứ hàn_đáp trả ! ",,
37,Overall sentiment,Positive,

38,"**mặt_sau với cụm camera được thiết_kế hơi nhô lên và bộ_phận cảm_biến nhịp_tim ",,
38,Overall sentiment,Unspecified,

39,"**image 1412092873 samsung galaxy note 4 techz 09 đánh_giá samsung galaxy note 4 : khi ông lớn xứ hàn_đáp trả ! ",,
39,Overall sentiment,Positive,

40,"**phím home với khả_năng nhận_diện vân_tay . ",,
40,Overall sentiment,Unspecified,

41,"**ảnh : hồng_long ",,
41,Overall sentiment,Unspecified,

42,"**image 1412092920 samsung galaxy note 4 techz 19 đánh_giá samsung galaxy note 4 : khi ông lớn xứ hàn_đáp trả ! ",,
42,Overall sentiment,Positive,

43,"**thiết_kế tổng_thể của galaxy note 4. ảnh : hồng_long ",,
43,Overall sentiment,Unspecified,

44,"**thừa_kế những tinh_hoa từ note 3 , note 4 vẫn có khả_năng tháo nắp vỏ sau để người_dùng có_thể dễ_dàng thay_thế pin . ",,
44,Overall sentiment,Positive,

45,"**nắp vỏ sau cũng_được làm từ chất_liệu nhựa giả_da được thiết_kế theo kiểu vân mềm_mại , so với người anh_em note 3 mặt_lưng sau có_vẻ trơn hơn và không bám tay bằng . ",,
45,Overall sentiment,Positive,

46,"**kế_đến là cụm camera lồi , đèn flashled , bộ phân đo nhịp tim , logo và khe loa , đây cũng là kiểu_cách bố_trí truyền_thống của samsung . ",,
46,Overall sentiment,Unspecified,

48,"**image 1412092887 samsung galaxy note 4 techz 12 đánh_giá samsung galaxy note 4 : khi ông lớn xứ hàn_đáp trả ! ",,
48,Overall sentiment,Positive,

49,"**màn hình 5.7 inch với độ_phân_giải 2k cực_kỳ sắc_nét . ",,
49,Overall sentiment,Unspecified,

50,"**ảnh : hồng_long ",,
50,Overall sentiment,Unspecified,

51,"**có_vẻ như kích_thước 5.7 inch là quá đủ cho một mẫu di_động lai máy_tính bảng , chính vì_thế hãng không nâng kích_thước của note 4 mà thay vào đó nó được nhồi_nhét một thông_số cấu hình cực_kỳ vượt trội . ",,
51,Overall sentiment,Unspecified,

52,"**và màn_hình cũng không ngoại_lệ , note 4 trang_bị màn_hình super amoled với độ_phân_giải lên_đến quad hd ( 2560 × 1440 pixels ) , điều này đã cung_cấp cho note 4 mật_độ điểm ảnh ‘ đáng kinh_ngạc ’ 500 pixel trên mỗi inch . ",,
52,Overall sentiment,Unspecified,

53,"**image 1412092909 samsung galaxy note 4 techz 16 đánh_giá samsung galaxy note 4 : khi ông lớn xứ hàn_đáp trả ! ",,
53,Overall sentiment,Positive,

54,"**màn hình note 4 có độ bão_hoà màu nhẹ hơn so với note 3 . ",,
54,Overall sentiment,Positive,

55,"**ảnh : hồng_long ",,
55,Overall sentiment,Unspecified,

56,"**màn hình hiển_thị galaxy note 4 ít bị bão_hoà hơn , hiển_thị rõ nét , sống_động và thể_hiện được độ_sâu của hình_ảnh ",,
56,Overall sentiment,Positive,
56,galaxy note 4,ít,Negative

57,"**để có những trải nghiệm_thực_tế , techz đã thử_tải một video với chất_lượng uhd . ",,
57,Overall sentiment,Positive,

58,"**quả_thực galaxy note 4 không làm chúng_ta thất_vọng với màu_sắc hiển_thị sống_động , chi_tiết cực_kỳ rõ_ràng và rất sâu . ",,
58,Overall sentiment,Negative,

59,"**ngay cả khi bạn phóng to cũng không xuất_hiện hiện_trạng răng_cưa , vỡ_hạt , mà ngược_lại nó rất mượt_mà và không xảy_ra hiện_trạng giật hay lag khung hình nào . ",,
59,Overall sentiment,Negative,

60,"**khi được so_sánh với phiên_bản tiền_nhiệm galaxy note 3 , độ bão_hoà màu của note 4 cũng nhẹ hơn một_chút , đồng_thời , giảm phần_nào hiện_tượng ám xanh thường thấy trên màn_hình amoled . ",,
60,Overall sentiment,Positive,
60,note 4,nhẹ,Positive

61,"**hiệu_năng và thời_lượng pin ",,
61,Overall sentiment,Unspecified,

62,"**image 1412092925 samsung galaxy note 4 techz 20 đánh_giá samsung galaxy note 4 : khi ông lớn xứ hàn_đáp trả ! ",,
62,Overall sentiment,Positive,

63,"**cấu_hình galaxy note 4 có_thể nói là mạnh_mẽ bậc_nhất hiện_nay . ",,
63,Overall sentiment,Positive,

64,"**ảnh : hồng_long ",,
64,Overall sentiment,Unspecified,

65,"**như đã đề_cập , galaxy note 4 sở_hữu cấu hình khủng bậc_nhất hiện_nay với chip xử_lý qualcomm snapdragon 805 mạnh_mẽ ( phiên_bản dành cho thị_trường mỹ ) , và loại vi xử_lý ‘ cây nhà_lá vườn ’ exynos 5433 8 nhân , trong_đó có 4 nhân cortex a57 tốc_độ 1.9ghz và 4 nhân cortex a53 1.3ghz ( phiên_bản quốc_tế ) . ",,
65,Overall sentiment,Positive,
65,qualcomm snapdragon,mạnh_mẽ,Positive

66,"**với thông_số cấu hình này , bạn sẽ không_phải e_ngại khi chạy bất_cứ ứng_dụng nào , thậm_chí truy_xuất rất nhanh . ",,
66,Overall sentiment,Positive,

67,"**tuy_nhiên máy vẫn xuất_hiện độ trễ khi thoát các ứng_dụng nặng , đây là điều mà hầu_hết các thiết_bị android đều gặp_phải . ",,
67,Overall sentiment,Unspecified,

68,"**với cấu hình mạnh_mẽ bậc_nhất hiện_nay , galaxy note 4 thực_thi khá nhanh nhậy và không vướng phải trở_ngại lớn nào khi chạy các ứng_dụng nặng ",,
68,Overall sentiment,Positive,
68,cấu hình,mạnh_mẽ,Positive
68,galaxy note 4,nhanh,Negative

69,"**mặc_dù với màn_hình ‘ cực nét ’ , song note 4 vẫn chỉ được cung_cấp mức dung_lượng pin 3.220mah . ",,
69,Overall sentiment,Positive,
69,màn_hình,nét,Positive

70,"**để bù_đắp khoảng này , samsung trang_bị tính_năng ‘ siêu tiết_kiệm pin ’ lấy từ galaxy s5 . ",,
70,Overall sentiment,Unspecified,

71,"**chỉ còn 10 % , nhưng máy vẫn trụ được 1 ngày . ",,
71,Overall sentiment,Unspecified,

72,"**bên_cạnh_đó , note 4 còn có khả_năng sạc cực nhanh 50 % chỉ trong nửa giờ . ",,
72,Overall sentiment,Positive,

73,"**image 1412092916 samsung galaxy note 4 techz 18 đánh_giá samsung galaxy note 4 : khi ông lớn xứ hàn_đáp trả ! ",,
73,Overall sentiment,Positive,

74,"**thời_lượng pin note 4 có_thể trụ đến 2 ngày với những tác_vụ thông_thường . ",,
74,Overall sentiment,Unspecified,

75,"**ảnh : hồng_long ",,
75,Overall sentiment,Unspecified,

76,"**khi trải nghiệm_thực_tế , máy có_thể hoạt_động với những thao_tác nặng như trong_vòng một ngày như lướt web và mạng xã_hội liên_tục với wifi , chụp_hình . ",,
76,Overall sentiment,Unspecified,

77,"**còn khi sử_dụng với mức dùng thông_thường , note 4 có_thể sống_sót được hơn 2 ngày . ",,
77,Overall sentiment,Unspecified,

78,"**thời_lượng này rất đáng để chúng_ta hoan_nghênh , khi note 4 phải chịu áp_lực lớn từ màn_hình có độ_phân_giải cao 2k . ",,
78,Overall sentiment,Positive,
78,độ_phân_giải,cao,Positive

79,"**loa ngoài note 4 thể_hiện khá_tốt so với note 3 , âm_thanh cũng lớn và rõ_ràng hơn , tất_nhiên nó vẫn chưa thể bì với công_nghệ boomsound vốn đình_đám trên htc one m8 , nhưng với một thiết_bị di_động có_lẽ như_vậy là quá đủ . ",,
79,Overall sentiment,Positive,
79,âm_thanh,lớn,Positive

81,"**camera cả mặt trước và sau của galaxy note 4 nâng_cấp hẳn_hoi so với phiên_bản tiền_nhiệm note 3 , với độ_phân_giải 16mp , tích hợp thêm chức_năng chống rung quang_học . ",,
81,Overall sentiment,Unspecified,

82,"**trong_khi_đó , camera mặt trước lên_đến 3.7 mp với khẩu_độ f/1.9 , cung_cấp khả_năng chụp_ảnh góc rộng khi ghép 1 lúc 3 hình_ảnh lại với_nhau . ",,
82,Overall sentiment,Positive,

83,"**ngoài_ra , bạn có_thể sử_dụng cảm_biến nhịp tim để chụp_ảnh , khá tiện_dụng đối_với những ai thích ‘ tự sướng ’ . ",,
83,Overall sentiment,Positive,

84,"**image 1412092902 samsung galaxy note 4 techz 15 đánh_giá samsung galaxy note 4 : khi ông lớn xứ hàn_đáp trả ! ",,
84,Overall sentiment,Positive,

85,"**camera trên note 4 có độ_phân_giải 16mp . ",,
85,Overall sentiment,Unspecified,

86,"**ảnh : hồng_long ",,
86,Overall sentiment,Unspecified,

87,"**camera galaxy note 4 có cùng độ_phân_giải so với s5 nhưng chụp nhanh hơn , bắt_nét tốt_hơn ",,
87,Overall sentiment,Positive,
87,s5,nhanh,Positive

88,"**mặc_dù độ_phân_giải tương_đương với cảm_biến máy_ảnh trên galaxy s5 , nhưng camera 16 chấm trên galaxy note 4 được hoàn_thiện hơn đôi_chút , nổi_bật hơn_cả chính ở tốc_độ lấy nét và tốc_độ chụp . ",,
88,Overall sentiment,Positive,
88,galaxy note 4,hoàn_thiện,Positive

89,"**tuy_nhiên , hình_ảnh vẫn còn chưa thật lắm trong một_số trường_hợp . ",,
89,Overall sentiment,Unspecified,

90,"**với khả_năng ‘ nịnh mắt ’ người_dùng vốn là sở_trường của samsung , màu_sắc các vật_thể có_phần tăng cao hơn một_chút so với bình_thường , và hình_ảnh khi phóng to lại cho cảm_giác không mịn_màng cho lắm . ",,
90,Overall sentiment,Neutral,

91,"**với tính_năng hdr , chúng_tôi đánh_giá cao những nỗ_lực của samsung với khả_năng tối_ưu hoá giữa phần_mềm và phần_cứng , giúp hình_ảnh thể_hiện tốt_hơn , màu_sắc hiển_thị cũng trung_thực hơn . ",,
91,Overall sentiment,Positive,
91,samsung,tối_ưu,Positive
91,màu_sắc,trung_thực,Positive

92,"**bên_cạnh_đó , chúng_ta không_thể không nhắc_đến những bổ_sung đáng_giá trên note 4 với công_nghệ chống rung quang_học ois , tính_năng này sẽ giúp bạn giảm_thiểu được hiện_trạng hình_ảnh bị giật và nhoè khi quay video . ",,
92,Overall sentiment,Negative,

93,"**image 1412092902 samsung galaxy note 4 techz 15 đánh_giá samsung galaxy note 4 : khi ông lớn xứ hàn_đáp trả ! ",,
93,Overall sentiment,Positive,

94,"**nhiều chức_năng chụp_hình thú_vị trên galaxy note 4. ảnh : hồng_long ",,
94,Overall sentiment,Positive,

95,"**trong điều_kiện tối , chất_lượng hình_ảnh của galaxy note 4 cũng tốt_hơn so với người tiền_nhiệm note 3 , tuy_rằng vẫn không tránh_khỏi tình_trạng nhiễu hạt , nhưng vẫn ổn hơn so với mặt_bằng chung một_số mẫu điện_thoại cao_cấp hiện_nay . ",,
95,Overall sentiment,Positive,
95,galaxy note 4,tốt_hơn,Positive

96,"**và khi sử_dụng đèn flashled , hình_ảnh xuất ra không quá chói , nó vẫn đảm_bảo được chi_tiết vật_thể . ",,
96,Overall sentiment,Unspecified,

97,"**samsung trang_bị khá nhiều tính_năng chụp_hình cho note 4 , nổi_bật trong_đó phải kể đến khả_năng xử_lý da mặt khi chụp_ảnh tự sướng , chụp 2 camera khá thú_vị , hay chụp xoá phông vật_thể , và còn rất nhiều những chức_năng khác . ",,
97,Overall sentiment,Positive,
97,samsung,nhiều,Negative
97,note 4,nổi_bật,Negative
97,camera,thú_vị,Positive

98,"**image 1412093931 10440160 716990468374980 5492836968798832694 n đánh_giá samsung galaxy note 4 : khi ông lớn xứ hàn_đáp trả ! ",,
98,Overall sentiment,Positive,

99,"**image 1412093931 10649693 716990405041653 3273089722015373905 n đánh_giá samsung galaxy note 4 : khi ông lớn xứ hàn_đáp trả ! ",,
99,Overall sentiment,Positive,

100,"**chụp trong điều_kiện tối ",,
100,Overall sentiment,Negative,

101,"**image 1412093932 10696212 717221128351914 1229013279688113423 n đánh_giá samsung galaxy note 4 : khi ông lớn xứ hàn_đáp trả ! ",,
101,Overall sentiment,Positive,

102,"**chụp dưới ánh_sáng ngoài_trời ",,
102,Overall sentiment,Unspecified,

103,"**đối_với camera trước , samsung nâng_cấp từ mức 2.1mp trên note 3 lên 3.7mp đối_với note 4 , với hy_vọng hình_ảnh xuất ra khi bạn tự sướng sẽ sắc nét hơn . ",,
103,Overall sentiment,Positive,

104,"**ngoài những tính_năng học_tập từ một số_nhà sản_xuất khác như xoá mụn , trắng da , thì chất_lượng ảnh_chụp vẫn chưa thực_sự gây được ấn_tượng , đặc_biệt khi selfish trong điều_kiện thiếu sáng . ",,
104,Overall sentiment,Positive,

105,"**tính_năng tự sướng góc rộng ghép 3 ảnh làm 1 vẫn chưa thân_thiện lắm với người_dùng , rất khó để sử_dụng . ",,
105,Overall sentiment,Positive,
105,tính_năng,sướng,Positive

106,"**phần_mềm và bút s - pen ",,
106,Overall sentiment,Unspecified,

107,"**image 1412092973 samsung galaxy note 4 techz 27 đánh_giá samsung galaxy note 4 : khi ông lớn xứ hàn_đáp trả ! ",,
107,Overall sentiment,Positive,

108,"**với 3gb ram , samsung chịu_khó chăm_chút hơn khả_năng chạy đa nhiệm của note 4 , các ứng_dụng được thu_gọn và chuyển ra màn_hình chính khá dễ_dàng chỉ với thao_tác đơn_giản là giữ góc bên_phải màn_hình và đẩy xuống , trông rất trực_quan và khá giống với giao_diện trên windows . ",,
108,Overall sentiment,Positive,
108,màn_hình,dễ_dàng,Negative

109,"**tính_năng hữu_ích này có_thể hoạt_động với một số ứng_dụng như gọi_điện , nhắn_tin , trình facebook . ",,
109,Overall sentiment,Positive,
109,tính_năng,hữu_ích,Positive

110,"**và khi bạn muốn thu_gọn diện_tích của những ứng_dụng đang hoạt_động đa nhiệm này , nó sẽ hiển_thị kiểu giao_diện chat head tương_tự facebook . ",,
110,Overall sentiment,Unspecified,

111,"**với nhiều tính_năng hữu_ích như smart select , s pen as mouse , snap note , galaxy note 4 sẽ mang đến cho bạn những trải nghiệm thú_vị với bút s - pen ",,
111,Overall sentiment,Positive,
111,tính_năng,hữu_ích,Positive

112,"**một trong những thành_phần không_thể thiếu trên note 4 chính là cây_bút ‘ s - pen ’ đầy phép màu . ",,
112,Overall sentiment,Unspecified,

113,"**không những cung_cấp cho bút s - pen của note 4 nhiều tính_năng thông_minh như smart select , s - pen as mouse , snap note . ",,
113,Overall sentiment,Positive,
113,note 4,nhiều,Positive

114,"**cây_bút thần_kỳ này cũng tỏ_vẻ lanh_lợi và nhanh_nhậy hơn so với note 3 , cụ_thể hơn , nét_vẽ , viết của bút s - pen trên note 4 cũng sắc_sảo hơn ",,
114,Overall sentiment,Positive,
114,note 4,sắc_sảo,Positive

115,"**image 1412092867 samsung galaxy note 4 techz 08 đánh_giá samsung galaxy note 4 : khi ông lớn xứ hàn_đáp trả ! ",,
115,Overall sentiment,Positive,

116,"**s - pen là cánh_tay_phải ‘ đắc_lực ’ của galaxy note 4. ảnh : hồng_long ",,
116,Overall sentiment,Unspecified,

117,"**và s - pen as mouse là một trong những trợ_thủ đắc_lực của bút s - pen với khả_năng quét và chọn các kí tự văn_bản rất trơn_tru và mượt_mà . ",,
117,Overall sentiment,Positive,

118,"**hay smart select giúp người_dùng chọn và cắt nội_dung trên màn_hình và chuyển_đổi chúng qua nhiều màn hình khác_nhau , thay_vì chỉ bó_buộc trong một nội_dung hiển_thị duy_nhất . ",,
118,Overall sentiment,Positive,

119,"**cuối_cùng , tính_năng snap note giúp bạn chuyển_thể những hình_ảnh thành dạng văn_bản để chỉnh sửa . ",,
119,Overall sentiment,Unspecified,

120,"**một_số tính_năng thân_thuộc khác của note 4 như cảm_biến vân_tay , cảm_biến nhịp tim , cảm_biến đo tia_cực_tím , giúp người_dùng quản_lý sức_khoẻ của mình tốt_hơn khi tiếp_xúc dưới ánh_nắng mặt_trời . ",,
120,Overall sentiment,Unspecified,

122,"**samsung đã không làm người hâm_mộ thất_vọng với những cải_tiến ‘ vượt trội ’ trên note 4 , từ thiết_kế cho_đến chất_liệu hình_thành . ",,
122,Overall sentiment,Neutral,

123,"**dẫu gặp rất nhiều trở_ngại từ đối_thủ sừng_sỏ iphone 6 plus , nhưng ‘ quái thú ’ mới cóng của samsung vẫn đạt được kết_quả tuyệt_đối trên sân nhà , cháy hàng chỉ sau 4 ngày lên kệ . ",,
123,Overall sentiment,Positive,

124,"**image 1412092990 samsung galaxy note 4 techz 28 đánh_giá samsung galaxy note 4 : khi ông lớn xứ hàn_đáp trả ! ",,
124,Overall sentiment,Positive,

125,"**galaxy note 4 dự_kiến sẽ được bán với giá 17 triệu đồng tại việt_nam . ",,
125,Overall sentiment,Unspecified,

126,"**ảnh : hồng_long ",,
126,Overall sentiment,Unspecified,

127,"**nếu bạn loại_trừ được những khó_khăn khi sử_dụng màn_hình lớn , galaxy note 4 sẽ là một lựa_chọn tuyệt_vời với thiết_kế sang_trọng , rắn_chắc , cấu hình mạnh_mẽ , cùng nhiều công_nghệ tiên_tiến kết_hợp với bút s - pen được tích_hợp bên_trong máy . ",,
127,Overall sentiment,Positive,
127,màn_hình,lớn,Positive
127,thiết_kế,sang_trọng,Positive
127,cấu hình,mạnh_mẽ,Positive

128,"**tại việt_nam , samsung galaxy note 4 dự_kiến sẽ bán_ra vào giữa tháng 10 với mức_giá 17 triệu đồng . ",,
128,Overall sentiment,Unspecified,

131,"**vẻ_ngoài sang_trọng , cứng_cáp cùng chất_liệu khung nhôm được vát cạnh sắc_sảo . ",,
131,Overall sentiment,Positive,

132,"**cấu hình mạnh_mẽ , tốc_độ thực_thi nhanh nhậy . ",,
132,Overall sentiment,Positive,
132,cấu hình,mạnh_mẽ,Positive

133,"**bút s - pen hoạt_động nhậy . ",,
133,Overall sentiment,Unspecified,

135,"**thiết_kế sắc_cạnh , cầm_nắm trong thời_gian dài không thoải_mái . ",,
135,Overall sentiment,Positive,

136,"**chất_lượng camera trước không tốt khi chụp đêm . ",,
136,Overall sentiment,Positive,
136,camera,tốt,Negative

137,"**mép màn_hình và khung nhôm chưa thật_sự liền_lạc ",,
137,Overall sentiment,Unspecified,

138,"**tổng quanvới nhiều cải_tiến về thiết_kế , cấu hình lẫn phần_mềm bên_trong , ‘ quái_vật xứ hàn ’ galaxy note 4 xứng_đáng là đối_thủ ‘ nặng_ký ’ của iphone 6 plus . ",,
138,Overall sentiment,Positive,

