﻿ID,Content 1,Content 2,Content 3,TRUE/FALSE,Notes
0,"**đánh_giá chi_tiết galaxy note 4 : chiếc note hoàn_thiện nhất ",,
0,Overall sentiment,Positive,

1,"**samsung galaxy note 4 có rất nhiều những thay_đổi , trong_đó thay_đổi về thiết_kế_bên ngoài là đáng nói_đến nhất . ",,
1,Overall sentiment,Positive,
1,samsung galaxy note 4,nhiều,Positive

2,"**sự_khác_biệt này đã làm_cho note 4 trở_nên hấp_dẫn hơn_hẳn so với năm_ngoái , nó là smartphone khung nhôm đầu_tiên của samsung được sản_xuất đại_trà sau galaxy alpha mang tính thử_nghiệm . ",,
2,Overall sentiment,Positive,
2,note 4,hấp_dẫn,Positive

3,"**trước_khi iphone 6 plus xuất_hiện , tất_cả các đối_thủ của dòng galaxy note đều đã thất_bại . ",,
3,Overall sentiment,Unspecified,

4,"**liệu với mức_giá khoảng 18 triệu đồng ở việt_nam , note 4 có giành_được nhiều thành_công như những đàn_anh đi_trước hay không ? ",,
4,Overall sentiment,Positive,
4,note 4,nhiều,Positive

6,"**không_phải s , mà note mới chính là dòng sản_phẩm được người_dùng samsung tự_hào nhất . ",,
6,Overall sentiment,Positive,

7,"**sự_lựa_chọn đó chủ_yếu đến từ sức_mạnh , từ màn_hình lớn và đặc_biệt là thời_lượng pin thật_sự xuất_sắc hơn là đến từ thiết_kế và vẻ_ngoài của máy . ",,
7,Overall sentiment,Positive,
7,màn_hình,lớn,Positive
7,pin,xuất_sắc,Positive

8,"**nói một_cách nôm_na , người_dùng các dòng note đi_trước phải hy_sinh , chọn hoặc tính_năng hoặc thiết_kế và điều_đó đã được cải_tiến một_cách đáng_kể trên note 4 . ",,
8,Overall sentiment,Positive,

9,"**chiếc_máy này không_thể nói_là quá đẹp , quá xuất_sắc nhưng rõ_ràng nó tốt và nhìn cao_cấp hơn_hẳn so với note 3 hay s5 liền kề . ",,
9,Overall sentiment,Positive,

10,"**samsung galaxy note _ 4 review - 2 . ",,
10,Overall sentiment,Unspecified,

12,"**trên galaxy note 4 , samsung tiếp_tục kế_thừa thiết_kế hơi vuông kiểu note 3 , từ_bỏ thiết_kế bo tròn lấy cảm_hứng từ_thiên_nhiên mà họ khởi_đầu từ s3 và note 2 . ",,
12,Overall sentiment,Unspecified,

13,"**đây là một động_thái đi ngược_lại hoàn_toàn với các đối_thủ khác , lg làm máy nhẹ_nhàng hơn , apple cũng bo tròn hơn , sony và htc lại càng cong mềm_mại trong_khi samsung vẫn làm_cho máy cứng và khác_biệt hẳn . ",,
13,Overall sentiment,Positive,

14,"**điều này khá lạ vì rõ_ràng là máy càng cong thì sẽ càng bớt khó_chịu khi cầm , nhất_là đối_với các thiết_bị có màn_hình lớn . ",,
14,Overall sentiment,Neutral,
14,màn_hình,lớn,Positive

15,"**samsung galaxy note _ 4 review - 17 . ",,
15,Overall sentiment,Unspecified,

16,"**với cách thiết_kế vuông_vức kiểu này thì chúng_ta sẽ không cảm_thấy dễ_chịu khi cầm note 4 , nó hơi khô và sắc ",,
16,Overall sentiment,Positive,

18,"**với các máy có màn_hình nhỏ như galaxy alpha , thiết_kế vuông_vức của note 4 không gây quá nhiều khó_chịu nhưng đối_với máy lớn thì mình nghĩ nó là một nhược_điểm . ",,
18,Overall sentiment,Neutral,
18,màn_hình,nhỏ,Negative

19,"**samsung vẫn chấp_nhận làm máy hơi cong đều nhẹ ở nắp lưng tạo điểm_tựa chứ không cắt hoàn_toàn và dựa_vào những đường diamond cut như mặt trước nên cảm_giác cầm có_phần nào dễ_chịu hơn . ",,
19,Overall sentiment,Positive,

20,"**tuy_nhiên , bạn cũng cần lưu_ý là phần diamond cut chạy dọc phía_sau nắp lưng không tiệp hoàn_toàn với viền , sẽ hơi khó_chịu một_chút . ",,
20,Overall sentiment,Negative,

21,"**nokia lumia 930 cũng sử_dụng cách thiết_kế tương_tự cho phía_sau nhưng tiết_diện của đường cắt lớn hơn và điện_thoại cũng nhỏ hơn nên bạn sẽ không bị cấn nhiều như note 4 . ",,
21,Overall sentiment,Positive,

22,"**samsung galaxy note _ 4 review - 14 . ",,
22,Overall sentiment,Unspecified,

24,"**nói đi cũng phải nói_lại , chính thiết_kế này làm_cho note 4 trở_nên an_toàn hơn khi cầm , có điểm_tựa và ít_có khả_năng bị rơi . ",,
24,Overall sentiment,Unspecified,

25,"**hơn_thế_nữa , với iphone bạn phải cưng bao nhiều thì note 4 không_cần , nó không cho chúng_ta cảm_giác phải nâng_niu , bảo_vệ như iphone mà là cảm_giác có_thể đặt bất_cứ nơi đâu mà không sợ trầy . ",,
25,Overall sentiment,Positive,

26,"**thực_chất thì mình thích một thứ cho cảm_giác tự_tin như_vậy hơn . ",,
26,Overall sentiment,Positive,

27,"**samsung galaxy note _ 4 review - 18 . ",,
27,Overall sentiment,Unspecified,

28,"**note 4 cho_phép bạn đặt lên bàn mà không quá lo_lắng về việc_làm trầy nó , cái này bạn nào xài iphone sẽ thấy nỗi_khổ vì phải nâng_niu máy : d ",,
28,Overall sentiment,Unspecified,

30,"**một trong những lý_do dẫn đến việc đó là samsung vẫn tiếp_tục dùng lớp giả_da ở mặt_sau , nhìn thì không_được đẹp nhưng nó sần , không trơn và hiếm_khi bị trầy . ",,
30,Overall sentiment,Positive,

31,"**nếu bạn_chọn phiên_bản màu_đen thì da sẽ trơn hơn một_chút . ",,
31,Overall sentiment,Unspecified,

32,"**samsung galaxy note _ 4 review - 27 . ",,
32,Overall sentiment,Unspecified,

33,"**cả bản màu_đen và trắng đều là mạ vào , chưa rõ về lâu về dài lớp mạ này có bị bạc_màu đi như iphone 5 trước_kia hay không ",,
33,Overall sentiment,Positive,

35,"**lại câu_chuyện màu_sắc , hãy chọn_màu đen , đừng mua trắng hay hồng nếu muốn tận_hưởng vẻ_đẹp nhất của note 4. cũng_như iphone 6 plus đẹp nhất là màu xám , phiên_bản note 4 đen thể_hiện rất rõ các cạnh được vuốt về phía mép mà samsung gọi_là màn_hình 2.5d , nó hắt ánh_sáng bên_ngoài và làm_cho màn_hình có cảm_giác nổi lên phía_trên . ",,
35,Overall sentiment,Positive,
35,iphone 6 plus,đẹp,Positive

36,"**bản màu_trắng mình mượn được không thể_hiện rõ điều_đó . ",,
36,Overall sentiment,Positive,

37,"**samsung galaxy note _ 4 review - 13 . ",,
37,Overall sentiment,Unspecified,

38,"**màu_đen thể_hiện tốt nhất những phẩm_chất ở mặt trước của note 4 ",,
38,Overall sentiment,Positive,

40,"**quay trở_lại với mặt trước , mặt đẹp nhất của note 4 . ",,
40,Overall sentiment,Positive,

41,"**như đã nói thì samsung đã dùng màn_hình với mép được mài xuống về phía viền để tạo cảm_giác thoải_mái khi chúng_ta sử_dụng . ",,
41,Overall sentiment,Positive,

42,"**tuy_vậy , họ lại không làm_cho khung viền nhôm bảo_vệ máy bên_ngoài thấp_xuống dưới màn_hình , hệ_quả là khi chúng_ta thực_hiện các thao_tác vuốt hay kéo thì tay sẽ va vào viền bị đội lên không dễ_chịu như xperia z3 , iphone 6 plus hay lumia 930 . ",,
42,Overall sentiment,Positive,

43,"**vấn_đề này được nói khá nhiều lần nhưng có_lẽ samsung cảm_thấy người_dùng của họ không quá khó_chịu với nó nên sẽ không đưa_ra nhiều thay_đổi . ",,
43,Overall sentiment,Positive,

44,"**trước đó thì galaxy alpha ít bị tình_trạng này , mặt_phẳng khung máy thấp hơn 1 tí_xíu so với mặt cắt của màn_hình . ",,
44,Overall sentiment,Negative,
44,galaxy alpha,ít,Negative

45,"**viền cao hơn màn_hình giảm khả_năng vỡ nếu bị rơi . ",,
45,Overall sentiment,Positive,

46,"**samsung galaxy note _ 4 review - 7 . ",,
46,Overall sentiment,Unspecified,

47,"**ở phiên_bản thử_nghiệm , màn_hình thấp hơn rõ_rệt so với khung xung_quanh nhưng bản thương_mại thì điều đó đã được cải_thiện đáng_kể , màn_hình sẽ nằm hơi cao hơn một_chút_xíu nhưng không tiệp vào khung , vẫn tạo_ra khoảng_trống và gờ sác khi tay chúng_ta vuốt . ",,
47,Overall sentiment,Neutral,
47,màn_hình,thấp,Negative

48,"**có thể bạn nghĩ nó bình_thường nhưng nếu thực_hiện thao_tác đa nhiệm kiểu vuốt sang phải // trái và vuốt ngược_lại nhanh thì sẽ rất khó_chịu ",,
48,Overall sentiment,Neutral,

50,"**hầu_hết các loại xe trên thị_trường đều có đầu đẹp hơn đuôi vì đặc_tính khí_động_học . ",,
50,Overall sentiment,Positive,

51,"**trên điện_thoại thì cũng tương_tự như_vậy , phải chứa loa cùng cụm camera nên mặt trước thường đẹp hơn mặt sau. ở một số thiết_bị , người_ta chuyển loa xuống đáy và phẳng hóa camera , giúp nó hòa_hợp với phần khung còn_lại & tăng tính thẩm_mỹ lên rất nhiều . ",,
51,Overall sentiment,Positive,

52,"**note 4 tiếp_tục thể_hiện rõ tư_tưởng đưa tính_năng lên trên thiết_kế khi đẩy loa trở_lại mặt_sau , tạo một gờ cho nó hơi cao hơn so với mặt bàn thoát tiếng đồng_thời nâng cụm camera chụp_ảnh tốt_hơn bất_chấp việc nó sẽ dày và lớn hơn khá nhiều. iphone 6 plus cũng có cụm camera hơi nổi_lên nhưng nó lệch hẳn sang một bên , dễ gây chú_ý hơn cụm camera đặt giữa của note 4 . ",,
52,Overall sentiment,Positive,
52,note 4,rõ,Positive
52,camera,tốt_hơn,Positive

53,"**samsung galaxy note _ 4 review - 3 . ",,
53,Overall sentiment,Unspecified,

55,"**ngoài camera thì note 4 còn chứa thêm cụm cảm_biến nhịp tim kiêm đèn flash ở mặt_sau . ",,
55,Overall sentiment,Unspecified,

56,"**cá_nhân mình ước nó là khu_vực đặt cảm_biến vân_tay thì sẽ tốt_hơn . ",,
56,Overall sentiment,Positive,

57,"**có thể bạn không tin , nhưng rõ_ràng là ngoại_trừ cách chạm và mở của cảm_biến vân_tay kiểu iphone có_thể đặt ở bất_cứ đâu thì các cảm_biến kiểu quét nên đặt ở vị_trí nào thuận_tiện nhất cho chúng_ta sử_dụng . ",,
57,Overall sentiment,Positive,

58,"**rõ_ràng là nếu tích_hợp vào một phần phím home như note 4 , chúng_ta vừa_phải dùng 2 tay để mở khóa màn_hình mà vừa_phải quét nhiều lần . ",,
58,Overall sentiment,Positive,

59,"**trung_bình thì mình phải quét 2 lần mới vào được máy , điều rất hiếm_khi xảy_ra nếu đặt vân_tay ở mặt lưng như htc one max . ",,
59,Overall sentiment,Positive,

60,"**để dùng bằng một tay thì bạn có_thể quét vân_tay theo chiều_ngang , nó sẽ hơi với nhưng vẫn hoạt_động được . ",,
60,Overall sentiment,Unspecified,

61,"**samsung galaxy note _ 4 _ review - 19 . ",,
61,Overall sentiment,Unspecified,

62,"**phím home nhạy hơn s5 nhưng vẫn chưa thật_tốt , một phần vì cách quét , một phần vì vị_trí đặt ",,
62,Overall sentiment,Unspecified,

63,"**samsung galaxy note _ 4 review - 11 . ",,
63,Overall sentiment,Unspecified,

64,"**mình thích phím home đặt ở_đây hơn ",,
64,Overall sentiment,Positive,

66,"**như_thường_lệ , các thiết_bị samsung vẫn cho_phép thay pin bằng cách mở nắp sau . ",,
66,Overall sentiment,Unspecified,

67,"**nhiều người cho_rằng đây là một ưu_điểm nhưng với những thông_tin mới nhất thì có_vẻ như samsung cũng sẽ sớm chuyển sang các máy nguyên_khối hoàn_toàn . ",,
67,Overall sentiment,Positive,

68,"**tuy_nhiên , trước_khi điều đó xảy_ra , bạn vẫn có_thể thay bao_nhiêu viên pin tùy_thích với note 4. thực_chất thì trừ khi bạn đi du_lịch hay di_chuyển dài thì thay pin là vô_nghĩa , thời_lượng pin của note 4 đủ cho chúng_ta dùng một ngày . ",,
68,Overall sentiment,Positive,

69,"**samsung galaxy note _ 4 review - 22 . ",,
69,Overall sentiment,Unspecified,

70,"**phần_lồi lõm này là phần xấu nhất của note 4 , giống với galaxy alpha ",,
70,Overall sentiment,Negative,

71,"**samsung galaxy note _ 4 review - 21 . ",,
71,Overall sentiment,Unspecified,

72,"**samsung galaxy note _ 4 review - 20 . ",,
72,Overall sentiment,Unspecified,

73,"**cổng usb 3.0 đã bị thay bằng usb 2.0 , có_lẽ samsung không muốn gặp vấn_đề với driver như note 3 trước_đó . ",,
73,Overall sentiment,Unspecified,

74,"**nếu bạn chờ có_nhiều thay_đổi thì usb 3.1 type c mới là cái chúng_ta mong_chờ samsung galaxy note _ 4 review - 16 . ",,
74,Overall sentiment,Positive,

75,"**vẫn có khoảng hở giữa viền máy và màn_hình , cái này là cái mình chưa thích khi chạy đa nhiệm ​ ",,
75,Overall sentiment,Positive,

77,"**trên note 4 , samsung đã thay màn_hình fullhd ở phiên_bản trước bằng 2k . ",,
77,Overall sentiment,Unspecified,

78,"**cách sắp_xếp điểm ảnh_kiểu pentile như một_số đời note đầu_tiên không_còn được duy_trì mà chuyển hẳn sang dạng diamond mới hơn . ",,
78,Overall sentiment,Positive,

79,"**với cách sắp_xếp này thì tình_trạng rỗ đã giảm hẳn , gần_như không_còn xuất_hiện như trước_kia . ",,
79,Overall sentiment,Negative,

80,"**một trong những nguyên_nhân làm_cho màn_hình này tốt_hơn cũng là nhờ độ_phân_giải mới có số_điểm ảnh cao hơn . ",,
80,Overall sentiment,Positive,
80,màn_hình,tốt_hơn,Positive
80,độ_phân_giải,mới,Positive
80,ảnh,cao,Positive

81,"**samsung galaxy note _ 4 review . ",,
81,Overall sentiment,Unspecified,

83,"**về màu_sắc , rõ_ràng là note 4 và galaxy alpha có sự_cải_tiến đáng_kể . ",,
83,Overall sentiment,Unspecified,

84,"**không_thể nói màu_sắc trên note 4 là tiêu_chuẩn , nhưng rõ_ràng nó đã đỡ đậm hơn , dịu hơn một_chút so với mắt . ",,
84,Overall sentiment,Neutral,

85,"**thông_thường thì người_dùng nên chuyển_về chế_độ adaptive display để màn_hình tự điều_chỉnh tùy_theo nội_dung hiển_thị . ",,
85,Overall sentiment,Unspecified,

86,"**cá_nhân mình vẫn ước màn_hình note 4 dịu hơn một_chút_nữa , giảm một xíu saturation và constrast sẽ tuyệt hơn nhưng có rất nhiều người_dùng samsung cực_kỳ thích màu_sắc kiểu này . ",,
86,Overall sentiment,Positive,
86,note 4,dịu,Positive
86,samsung,thích,Positive

87,"**ngoài adaptive , samsung còn bổ_sung thêm một_vài chế_độ , trong_đó có basic mà rất nhiều người tin rằng nó sẽ giúp hình_ảnh hiển_thị ít bị đậm , dành cho những ai thích hình_ảnh trung_thực hơn . ",,
87,Overall sentiment,Positive,

88,"**tuy_nhiên , thực_tế cho_thấy với chế_độ basic thì hình_ảnh lại trở_nên nhạt quá_mức cần_thiết , độ tương_phản thấp , bão hòa màu cũng kém và vàng quá_mức cần_thiết , một vẻ vàng hơi ngả xanh green một_chút ( vàng là kết_hợp của red và green ) . ",,
88,Overall sentiment,Negative,

89,"**samsung galaxy note _ 4 review - 24 . ",,
89,Overall sentiment,Unspecified,

90,"**samsung vẫn trung_thành với cách dùng phím cảm_ứng vật_lý phía_dưới nhưng phím home lại không cho cảm_ứng theo , đang back back mà phải nhấn phím home sẽ không đồng_bộ với_nhau ",,
90,Overall sentiment,Positive,

92,"**trên thực_tế , khi hiển_thị màu_trắng thì ở bất_cứ góc nhìn nào bạn vẫn thấy màn hình hơi nghiêng nhẹ_về màu_xanh . ",,
92,Overall sentiment,Unspecified,

93,"**điều này là chắc_chắn và không_thể bàn_cãi . ",,
93,Overall sentiment,Unspecified,

94,"**tuy_nhiên , không_phải ai cũng khó_chịu với màu_xanh này , mình nghĩ nó đã dễ_chấp_nhận hơn rất nhiều so với các máy note trước_kia . ",,
94,Overall sentiment,Neutral,

95,"**đây là những cảm_nhận mang tính cá_nhân nhiều hơn vì mình thích cách ips lcd hiển_thị hơn là amoled của samsung căn chỉnh ở thời_điểm hiện_tại . ",,
95,Overall sentiment,Positive,

96,"**về vấn_đề hiển_thị , có rất nhiều thông_tin cho_rằng màn_hình note 4 là tuyệt nhất ở thời_điểm hiện_tại , đặc_biệt là khi đo bằng_máy . ",,
96,Overall sentiment,Positive,
96,note 4,tuyệt,Positive

97,"**chuyện_đó không_có gì đáng ngạc_nhiên , về thông_số tương_phản , góc nhìn thì chắc_chắn lcd không và sẽ không_bao_giờ bằng oled nói_chung hay amoled nói_riêng . ",,
97,Overall sentiment,Unspecified,

98,"**nếu đo bằng việc hiển_thị màu_xanh_xanh nhất hay đỏ đỏ nhất , lcd cũng sẽ thua . ",,
98,Overall sentiment,Unspecified,

99,"**tuy_nhiên , đó là thông_số hiển_thị tối_đa và các giá_trị ở giữa , tức các giá_trị mà chúng_ta hiển_thị hằng ngày mới là cái quan_trọng . ",,
99,Overall sentiment,Positive,

100,"**chẳng_ai dùng điện_thoại của họ chỉ để hiển_thị rgb suốt_cả ngày . ",,
100,Overall sentiment,Unspecified,

101,"**có_thể thấy rõ_ràng là ở hạng_mục đó , màn_hình amoled do samsung cân chỉnh không_được đánh_giá cao . ",,
101,Overall sentiment,Positive,

102,"**cá_nhân mà nói , màn_hình iphone 6 plus vẫn là màn_hình đẹp nhất hiện_tại trên di_động , màn_hình note 4 vẫn có cảm_giác bị một lớp sương phủ rất mỏng trên đó làm_cho đục nhẹ đi , màn_hình xperia z3 thì trong nhất nhưng hơi rực một_chút , bù_lại nó cho_phép chúng_ta chỉnh từng kênh màu một . ",,
102,Overall sentiment,Positive,
102,màn_hình,đẹp,Positive

103,"**samsung galaxy note _ 4 review - 15 . ",,
103,Overall sentiment,Unspecified,

105,"**chế_độ điều_chỉnh tự_động trên note 4 khá lạ , nó có xu_hướng nghiêng_về góc hơi tối khi ở trong nhà , ngoài nắng vẫn điều_chỉnh bình_thường . ",,
105,Overall sentiment,Negative,

106,"**điều này giúp tiết_kiệm pin nhưng đôi_khi sẽ khiến mắt chung ta hơi khó_chịu . ",,
106,Overall sentiment,Negative,

107,"**khi này việc điều_chỉnh tay rất cần_thiết , không quá khó ngay vì nó nằm ngay trên notification bar . ",,
107,Overall sentiment,Negative,

109,"**note 4 đang sở_hữu cấu hình mạnh nhất trong tất_cả các máy android trên thị_trường , nó có 2 phiên_bản sử_dụng chip exynos 5433 ( ở việt_nam , dùng modem lte intel ) hoặc snapdragon 805 ( tích_hợp sẵn lte ) . ",,
109,Overall sentiment,Positive,
109,cấu hình,mạnh,Positive

110,"**thông_thường bảo snapdragon được đánh_giá cao hơn nhưng rõ_ràng là với việc sử_dụng exynos ở thị_trường nội_địa là hàn_quốc , samsung đã ngầm tỏ rõ con_chip của họ không_còn lép vé như trước_kia nữa . ",,
110,Overall sentiment,Positive,
110,snapdragon,cao,Positive

111,"**con chip 5433 là con chip mạnh nhất của samsung hiện_tại , nếu chỉ nhìn vào các điểm benchmark thì rõ_ràng là nó cũng rất xuất_sắc với antutu đạt , con chip đồ họa. giúp đạt xx điểm 3d mark và geekbench . ",,
111,Overall sentiment,Positive,
111,chip,mạnh,Positive

112,"**một trong những lý_do là nó dùng nhân 4 nhân cortex a57 và 4 nhân phụ cortex a53 hỗ_trợ 64bit và dựa_trên vi kiến_trúc armv8 mới hoàn_toàn so với a15 trước_kia . ",,
112,Overall sentiment,Positive,

113,"**armv8 là vi kiến_trúc nền của apple a7/a8 hay nvidia denver ( tegra k1 ) . ",,
113,Overall sentiment,Unspecified,

114,"**đó chỉ_là một vấn_đề trên giấy_tờ , còn thực_tế thì điểm mạnh lớn nhất của exynos 5433 là nó ít lag hơn rất nhiều . ",,
114,Overall sentiment,Positive,

115,"**các con_chip exynos chạy ứng_dụng rất tốt nhưng ở màn_hình home thì bị trễ khi chúng_ta chạm , có_vẻ như nó cần thời_gian hâm_nóng nhưng 5433 đã giảm đi đáng_kể . ",,
115,Overall sentiment,Positive,

116,"**rất hiếm_khi máy bị đơ hay khựng , chỉ khi vẽ s - pen tren s - note bằng ngòi_bút nghệ_thuật mới thì máy mới bị trễ khoảng 0.5 giây do phải xử_lý nhiều hơn để tạo_ra ngòi_bút này , bù_lại thì dù chữ xấu như mình nhưng nhìn cũng không đến_nỗi tệ lắm . ",,
116,Overall sentiment,Positive,

117,"**s - pen là một điểm rất hay của note 4 mà chúng_ta sẽ đi chi_tiết hơn ở phần_sau của bài_viết . ",,
117,Overall sentiment,Unspecified,

118,"**screenshot 2014-10-24-13-32-27 . ",,
118,Overall sentiment,Unspecified,

119,"**screenshot 2014-10-23-15-05-57 . ",,
119,Overall sentiment,Unspecified,

120,"**screenshot 2014-10-23-15-07-17 . ",,
120,Overall sentiment,Unspecified,

121,"**screenshot 2014-10-24-13-32-36 . ",,
121,Overall sentiment,Unspecified,

122,"**screenshot 2014-10-24-13-35-10. ​ ",,
122,Overall sentiment,Unspecified,

124,"**trước_khi đi_sâu hơn , chúng_ta cần khẳng_định một điều : camera note 4 rất tuyệt . ",,
124,Overall sentiment,Positive,
124,note 4,tuyệt,Positive

125,"**nếu như iphone từng được yêu_thích không_phải vì nó chụp đẹp nhất ( chào lumia ) mà vì nó dễ sử_dụng nhất thì nay camera note cũng phần_nào làm_được điều_đó . ",,
125,Overall sentiment,Positive,

126,"**việc của bạn chỉ_là bấm_nút chụp , máy sẽ xử_lý phần còn_lại cho chúng_ta . ",,
126,Overall sentiment,Unspecified,

127,"**camera note 4 đặc_biệt xuất_sắc ở phần tự_động , samsung đã cải_tiến rất nhiều thuật_toán của họ , đặc_biệt là local tone mapping để chỉnh sửa ảnh theo khu_vực rất khéo . ",,
127,Overall sentiment,Positive,
127,note 4,đặc_biệt,Positive
127,samsung,cải_tiến,Positive

128,"**điều này làm_cho chúng_ta có cảm_giác dải dynamic range của máy rất rộng , đôi_khi là rộng quá giới_hạn của một chiếc điện_thoại . ",,
128,Overall sentiment,Positive,

129,"**lúc_trước thì iphone 5s trở_về trước xử_lý local tone mapping cực_kỳ tốt , nhưng iphone 6/6 plus lại chưa tốt làm_cho ảnh dễ bị cháy khi bị chênh sáng mạnh còn note 4 cải_thiện nhiều so với đời trước . ",,
129,Overall sentiment,Positive,
129,note 4,nhiều,Positive

130,"**năm_ngoái mình có_mang note 3 đi_chơi chung với lumia 1020 , hệ_quả là note 3 thường_xuyên bị ném ở_nhà vì khu_vực sáng thường_hay bị blow out , thuật_toán xử_lý ảnh quá giả còn note 4 đã đỡ hơn nhiều , rất nhiều . ",,
130,Overall sentiment,Positive,

131,"**samsung galaxy note _ 4 review - 10 . ",,
131,Overall sentiment,Unspecified,

132,"**camera này cũng lồi , "" mốt mới "" , hy_vọng mode này sớm biến_mất ",,
132,Overall sentiment,Positive,

134,"**tự_động tốt_hơn nhưng samsung vẫn cần phải cải_tiến các thuật_toán liên_quan tới ev và đặc_biệt là hdr . ",,
134,Overall sentiment,Positive,

135,"**trên iphone thì chúng_ta có chế_độ auto hdr sẽ tự nhận_diện cảnh nào cần hdr và cảnh nào không trong_khi note 4 người_dùng vẫn phải kích_hoạt bằng_tay . ",,
135,Overall sentiment,Unspecified,

136,"**lý_do nhắc_đến iphone ở_đây là_vì camera note 4 đi_theo hướng đơn_giản_hóa hơn để ai cũng chụp được , đúng_với triết_lý iphone theo từ đầu . ",,
136,Overall sentiment,Unspecified,

137,"**ngoài_ra , samsung cũng cần thay_đổi cách người_dùng thay_đổi ev , tốn quá nhiều bước để tăng // giảm sáng cho một bức_hình , ev lại đi_theo bước 0.5 theo kiểu htc thay_vì 0.33 truyền_thống đồng_thời có_vẻ như samsung dựa quá_nhiều vào phần_mềm , ở mức - 2 và + 2 ev mà sự_thay_đổi là không đáng_kể , giống như họ đã cố kiếm chế mọi_thứ bằng phần_mềm chứ không_phải thay_đổi iso hay tốc_độ thật_sự . ",,
137,Overall sentiment,Positive,

138,"**samsung galaxy note _ 4 review - 11 . ",,
138,Overall sentiment,Unspecified,

140,"**trong môi_trường đủ sáng , thậm_chí là hơi gắt thì note 4 vẫn giữ được rất nhiều chi_tiết , cần lưu_ý là bạn phải coi trên máy_tính để có cái nhìn chính_xác hơn . ",,
140,Overall sentiment,Positive,

141,"**samsung có tạo một chế_độ hiển_thị riêng là amoled photo để chúng_ta nhìn trên điện_thoại hợp nhãn hơn nhưng nó lại làm cho chúng_ta hơi khó_khăn trong việc xác_định đâu là màu mình mong_muốn để up lên facebook // flickr chia_sẻ với bạn_bè . ",,
141,Overall sentiment,Unspecified,

142,"**khi mình dùng các máy khác thì ảnh mình nhìn_thấy trên màn_hình không khác_biệt nhiều với hình trên máy_tính còn note 4 hay các máy amoled của samsung thì có , các bạn nên lưu_ý để kéo quá_tay : d ",,
142,Overall sentiment,Positive,
142,màn_hình,nhiều,Positive

143,"**samsung galaxy note _ 4 review - 12 . ",,
143,Overall sentiment,Unspecified,

145,"**còn chụp tối thì_sao ? ",,
145,Overall sentiment,Negative,

146,"**có_thể một trong những lý_do mà samsung tạm bỏ cảm_biến isocell nhà_làm trên s5 để chuyển sang cảm_biến sony là_vì hiệu_năng chụp tối kém . ",,
146,Overall sentiment,Negative,

147,"**cảm biến sony xuất_hiện trên note 4 có kích_cỡ 1/2.6 , lớn hơn một_chút so với các cảm_biến 1/3 khá phổ_biến nhưng nó vẫn quá nhỏ để nhét độ_phân_giải 16mp vào . ",,
147,Overall sentiment,Positive,

148,"**chính vì_vậy , kích_cỡ mỗi điểm ảnh chỉ_là 1.1 micromet vuông , không đủ lớn để các giếng sáng bắt ánh_sáng tốt . ",,
148,Overall sentiment,Positive,
148,ánh_sáng,tốt,Positive

149,"**samsung đã trang_bị chống rung quang_học để cải_tiến hiệu_năng chụp đêm nhưng rõ_ràng là cái_gì cũng có giới_hạn của nó , hiệu_năng mặt này của note 4 chỉ ở mức trung_bình . ",,
149,Overall sentiment,Positive,
149,chống rung quang_học,cải_tiến,Positive

150,"**có một điểm_yếu nữa cần nhắc tới : trải nghiệm người_dùng . ",,
150,Overall sentiment,Unspecified,

151,"**lại phải nhắc tới iphone một_lần nữa ( không_phải iphone 6 plus thì ai sẽ là đối_thủ chính của note 4 ở phân_khúc màn_hình lớn đây ? ) . ",,
151,Overall sentiment,Positive,
151,màn_hình,lớn,Positive

152,"**mỗi khi bấm_nút chụp_ảnh trên iphone , bạn tự_tin là hình đó đã được lưu và chúng_ta cảm_thấy rất an_toàn , không lo bị rung vì máy phản_hồi cực_kỳ nhanh và mọi thao_tác đều được đơn_giản tới mức tối_đa , kể_cả các biểu_tượng . ",,
152,Overall sentiment,Positive,

153,"**trên note 4 thì dù đã đi_theo hướng tự_động nhưng cảm_giác bấm_nút chụp_hình cho_đến thao_tác xem hình lại vẫn cho hơi thiếu tự_tin và thường mình phải chụp 2 tấm cho_chắc_ăn dù điều đó không cần_thiết trong hầu_hết các trường_hợp . ",,
153,Overall sentiment,Unspecified,

154,"**nhìn_chung , camera note 4 là một thay_đổi rất lớn , dù vẫn còn vài nhược_điểm về cơ_chế điều_khiển , cảm_giác chụp hay đôi_khi là cân bằng trắng nhưng rõ_ràng nó tạo rất nhiều cảm_hứng cho người chụp , điều không xuất_hiện ở note 3 hay thậm_chí là s5 . ",,
154,Overall sentiment,Positive,

155,"**tiêu cự camera sau của máy ở tỷ_lệ 16:9 là 31mm , không quá hẹp cũng không quá rộng . ",,
155,Overall sentiment,Neutral,

156,"**một_số hình chụp từ note 4 , trừ tấm đầu_tiên không làm_gì và tấm thứ 2 chỉ crop trực_tiếp trên máy thì các tấm còn_lại đều có áp màu sơ_qua một_chút , sau_đó resize 1024 bằng photoshop với chất_lượng 100 % . ",,
156,Overall sentiment,Positive,

157,"**hình gốc không resize camera galaxy note 4 xem tại flickr của mình . ",,
157,Overall sentiment,Unspecified,

158,"**các bạn có_thể xem bài chi_tiết về camera galaxy note 4 tại_đây . ",,
158,Overall sentiment,Unspecified,

159,"**2014-10-24 04.41.58 1 . ",,
159,Overall sentiment,Unspecified,

160,"**2014-10-24 04.44.56 1 . ",,
160,Overall sentiment,Unspecified,

161,"**2014-10-24 04.45.06 1 . ",,
161,Overall sentiment,Unspecified,

162,"**2014-10-24 04.45.16 1 . ",,
162,Overall sentiment,Unspecified,

163,"**2014-10-24 04.45.31 1 . ",,
163,Overall sentiment,Unspecified,

164,"**2014-10-16 03.41.17 1 . ",,
164,Overall sentiment,Unspecified,

165,"**2014-10-20 04.23.21 1-1 . ",,
165,Overall sentiment,Unspecified,

166,"**2014-10-15 09.58.27 1. ​ ",,
166,Overall sentiment,Unspecified,

168,"**đây là điểm mạnh của các dòng note trước , và rất tiếc mình không_thể chia_sẻ kỹ với các bạn trong bài review này . ",,
168,Overall sentiment,Positive,

169,"**máy mình cầm đang là máy thử_nghiệm và chưa thể_up lên bản cập_nhật mới nhất mà samsung cho là sẽ cải_thiện đáng_kể thời_gian sử_dụng pin . ",,
169,Overall sentiment,Positive,

170,"**vì lý_do gì_đó mà máy mình hết pin khá nhanh , chỉ khoảng hơn 4 tiếng on - screen và 8-9 tiếng stand by . ",,
170,Overall sentiment,Positive,
170,pin,nhanh,Negative

171,"**cái này thì anh @ vuhai6 sẽ cho bạn biết rõ hơn , anh hải đã mua 1 máy chính_thức để thử rồi . ",,
171,Overall sentiment,Positive,

172,"**samsung galaxy note _ 4 review - 26 . ",,
172,Overall sentiment,Unspecified,

174,"**note 4 có một chế_độ sạc pin mới là nếu máy bạn hết pin , nó sẽ nạp đầy 50 % chỉ trong 30 phút và sau_đó sẽ sạc chậm_lại . ",,
174,Overall sentiment,Positive,
174,pin,mới,Positive

175,"**samsung thực_hiện điều này nhờ vào công_nghệ quickcharge 2.0 của qualcomm cho_phép đẩy nguồn lên 9v 1.67a ( khoảng 15w ) hoặc 5v 2a ( 10w ) sau_này . ",,
175,Overall sentiment,Unspecified,

176,"**bạn có_thể dùng cục sạc của samsung hoặc sạc của htc như mình có thử_nghiệm hôm_trước , chỉ cần hỗ_trợ quickcharge 2.0 là được . ",,
176,Overall sentiment,Unspecified,

177,"**phần_mềm và s - pen : ",,
177,Overall sentiment,Unspecified,

178,"**samsung có 3 năm kinh_nghiệm trong việc tối_ưu_hóa phần_mềm cho màn_hình lớn , và họ làm điều đó rất tốt trên note 4. lý_do máy có 3gb ram là_vì samsung trang_bị quá_nhiều tính_năng đa_nhiệm , chạy nhiều phần_mềm cùng lúc ( chạy càng nhiều càng giựt , bạn chạy khoảng 2 cái là được rồi ) . ",,
178,Overall sentiment,Positive,
178,màn_hình,lớn,Positive

179,"**tính_năng mình thích nhất_là thu_nhỏ màn_hình chỉ bằng cách kéo từ mép , giống với thu_nhỏ cửa_sổ trên pc của chúng_ta . ",,
179,Overall sentiment,Positive,
179,tính_năng,thích,Positive

180,"**ngoài_ra , samsung cũng đã cải_tiến đa nhiệm trên note 4 , thay nút option bằng nút đa nhiệm hiện_đại , nhiều chức_năng hơn ( xem chi_tiết hơn trong video ) . ",,
180,Overall sentiment,Positive,
180,samsung,cải_tiến,Positive

181,"**samsung galaxy note _ 4 review - 4 . ",,
181,Overall sentiment,Unspecified,

183,"**có một điểm_yếu ở_đây là tuy đã thu_nhỏ cửa_sổ lại nhưng chúng_ta chưa thể kéo nó vào một góc để tự_động co vào làm 2 như windows 7 trở_lên ( tính_năng aero snap ) và đặc_biệt là chưa thể tự_động gom ứng_dụng theo tab kiểu chat head của facebook messenger ( note 4 có hiển_thị kiểu chat head nhưng rất lung_tung và chưa đẹp ) . ",,
183,Overall sentiment,Positive,

184,"**nếu samsung làm_được điều đó thì tính_năng đa nhiệm trên note 4 còn tuyệt_vời hơn_nữa . ",,
184,Overall sentiment,Positive,
184,note 4,tuyệt_vời,Positive

185,"**các bạn có_thể xem video để có cái nhìn sơ_bộ , bạn @ duy_luân sẽ nói chi_tiết hơn về vấn_đề này trong một bài khác . ",,
185,Overall sentiment,Unspecified,

186,"**samsung galaxy note _ 4 review - 9 . ",,
186,Overall sentiment,Unspecified,

188,"**vê s - pen , thường thì mình không thích nó vì chẳng mang lại nhiều tác_dụng động thời khá phiền_phức khi phải rút_ra rút_vào . ",,
188,Overall sentiment,Positive,

189,"**trên note 4 thì cuối_cùng , s - pen đã có tác_dụng thật_sự : nó cho_phép chúng_ta chọn văn_bản ở rất nhiều các trường dữ_liệu khác_nhau , chẳng_hạn như trên ứng_dụng facebook là khu_vực mà chúng_ta thường_xuyên không copy được nội_dung mà chỉ có_thể share lại . ",,
189,Overall sentiment,Positive,

190,"**để làm điều đó bạn chỉ cần nhấn nút trên s - pen và kéo_lên trên đoạn văn_bản cần bôi là xong . ",,
190,Overall sentiment,Unspecified,

191,"**một_số_người cho là samsung đã chụp_ảnh màn_hình khu_vực đó lại và dùng công_nghệ nhận_diện chữ để lấy_dữ_liệu nhưng mình thì cho_rằng họ đã đọc html để lấy trường_dữ_liệu đó . ",,
191,Overall sentiment,Unspecified,

192,"**dù_sao thì nó cũng rất phức_tạp và chúng_ta không cần quan_tâm nhiều , chỉ biết là nó làm_việc được , thế_là xong : d ",,
192,Overall sentiment,Positive,

193,"**samsung galaxy note _ 4 review - 23 . ",,
193,Overall sentiment,Unspecified,

195,"**ngoài_ra , trên s - pen mới còn xuất_hiện một ngòi_bút với tên_gọi tiếng việt là bút thư_pháp . ",,
195,Overall sentiment,Positive,
195,s - pen,mới,Positive

196,"**với cây_bút này thì cả_người viết xấu như mình cũng vẽ được các nét không tệ chút_nào . ",,
196,Overall sentiment,Neutral,

197,"**trong video mình có thử các nét_bút đó , cực_kỳ thích . ",,
197,Overall sentiment,Positive,

198,"**các nét còn_lại thì vẽ cỡ nào cũng xấu nên không hài_lòng lắm : d trên note 4 thì s - pen mới được cải tiến_độ_nhạy lên nhận_được 2048 mức lực khác_nhau so với 1024 trước_đó . ",,
198,Overall sentiment,Positive,
198,s - pen,mới,Positive

199,"**cái này bạn nào vẽ chắc sẽ cảm_nhận được , mình không có hoa_tay nên thấy cũng bình_thường . ",,
199,Overall sentiment,Unspecified,

200,"**khen nhiều về phần_mềm , vậy điểm_yếu là_gì ? touchwiz vẫn quá nặng_nề và khó sử_dụng , đặc_biệt là các tính_năng liên_quan tới s - pen hay các tính_năng nâng_cao , các thiết_lập . ",,
200,Overall sentiment,Positive,

201,"**nếu chưa_từng dùng s - pen bao_giờ hoặc thậm_chí đã dùng note 2 , note 3 thì bạn vẫn phải đánh_vật cả ngày để nhớ đủ các chức_năng của cây_bút mới . ",,
201,Overall sentiment,Positive,

202,"**thật may là samsung đã dần cố_gắng cải_tiến , đưa nhiều hơn những chức_năng hữu_ích vào menu bên_ngoài nhưng rõ_ràng nó vẫn chưa đủ , rất nhiều người cuối_cùng chẳng đụng tới bút ( dù dây là lý_do họ mua note ) hoặc chỉ dùng một_vài chức_năng nào_đó mà không phải là tất_cả như samsung mong_muốn . ",,
202,Overall sentiment,Positive,

204,"**samsung galaxy note 4 là một chiếc điện_thoại rất tuyệt , nó không_chỉ xử_lý bài_toán về cấu hình ( lag ) mà còn xử_lý luôn_cả vấn_đề ngoại_hình mà nhiều người than_phiền trước_kia . ",,
204,Overall sentiment,Positive,

205,"**rõ_ràng với những thay_đổi đó thì note 4 trở_nên đáng lựa_chọn hơn , rất tiếc là nó không_còn một_mình một đường như trước_kia với sự_xuất_hiện của iphone 6 plus . ",,
205,Overall sentiment,Unspecified,

206,"**hiện_tại chưa rõ giá của iphone 6 plus ở việt_nam là bao_nhiêu nhưng với động_thái tăng một triệu đồng lên thành 18 triệu thì chắc_chắn thiện_cảm của người_dùng dành cho note 4 sẽ bị giảm đi ít_nhiều . ",,
206,Overall sentiment,Positive,

207,"**xét về mặt sản_phẩm đơn_thuần , note 4 rất xuất_sắc . ",,
207,Overall sentiment,Positive,
207,note 4,xuất_sắc,Positive

208,"**nếu bạn chưa_bao_giờ có kinh_nghiệm dùng android và muốn thử_nghiệm một cái_gì_đó rất android , tức rối nhưng cực_kỳ nhiều tính_năng và cho_phép tùy_biến rất nhiều thì rõ_ràng note 4 là một lựa_chọn khó có_thể sai được . ",,
208,Overall sentiment,Positive,

209,"**tuy_nhiên , người_dùng muốn mọi_thứ nhẹ_nhàng , vui_vẻ hơn mà không bị ngập tràn trong quá_nhiều thứ , và đặc_biệt là có giá_rẻ hơn thì htc one max , lg g pro 2 hay đặc_biệt là xperia z ultra với giá siêu thấp so với cấu hình cũng là những lựa_chọn rất hợp_lý . ",,
209,Overall sentiment,Positive,
209,giá,thấp,Positive

211,"**thiết_kế cải_tiến rất nhiều ",,
211,Overall sentiment,Positive,
211,thiết_kế,cải_tiến,Positive

212,"**s - pen hữu_ích hơn_hẳn ",,
212,Overall sentiment,Positive,
212,s - pen,hữu_ích,Positive

213,"**hiệu_năng tốt_hơn các đời exynos trước ",,
213,Overall sentiment,Positive,

214,"**camera chụp ngày xuất_sắc ",,
214,Overall sentiment,Positive,
214,camera,xuất_sắc,Positive

215,"**pin tốt ( chờ xác_nhận ) , sạc_nhanh ",,
215,Overall sentiment,Positive,
215,pin,tốt,Positive

217,"**chụp đêm chưa ngon ",,
217,Overall sentiment,Positive,

218,"**không chống nước như s5 , hoàn_thiện chưa tương_xứng với giá_thành ",,
218,Overall sentiment,Positive,
218,s5,hoàn_thiện,Positive

219,"**phần_mềm vẫn còn rối ",,
219,Overall sentiment,Unspecified,

221,"**cấu_hình cơ_bản : ",,
221,Overall sentiment,Unspecified,

222,"**mạng : 2.5g , 3g , 4g ( cat 4 , cat 6 ) ",,
222,Overall sentiment,Unspecified,

223,"**vi xử_lý : exynos 8 nhân ( 1.9ghz quad cortex a57 + 1.3ghz quad cortex a53 ở việt_nam ",,
223,Overall sentiment,Unspecified,

224,"**màn hình : 5.7 "" , quad hd super amoled ( 2560 x 1440 ) ",,
224,Overall sentiment,Unspecified,

225,"**os : android 4.4 ",,
225,Overall sentiment,Unspecified,

226,"**camera : 16 mp , smart ois ( chống rung quang_học thông_minh ) , camera trước : 3.7mp , f1.9 ",,
226,Overall sentiment,Unspecified,

227,"**bộ_nhớ trong : 32gb , khe thẻ microsd hỗ_trợ thẻ lên_đến 64gb ",,
227,Overall sentiment,Positive,

229,"**cảm biến vân_tay ",,
229,Overall sentiment,Unspecified,

230,"**pin : 3220mah , sạc_nhanh ",,
230,Overall sentiment,Unspecified,

231,"**kích_thước : 153.5 x 78.6 x 8.5mm ",,
231,Overall sentiment,Unspecified,

232,"**trọng_lượng : 176g ",,
232,Overall sentiment,Unspecified,

233,"**đánh_giá rất hay nhưng i cuồng lại sắp gọi thím sơn là seeder r ",,
233,Overall sentiment,Unspecified,

234,"**note năm nào cũng là đỉnh của đỉnh . ",,
234,Overall sentiment,Positive,

235,"**năm_nay không_biết sẽ làm_ăn thế_nào khi các đối_thủ cũng có những bược tiến lớn , gần_như ss không đủ_sức cản_lại . ",,
235,Overall sentiment,Positive,

236,"**năm 2013 , samsung cũng đứng thứ 6 trên thế_giới về tiền kiếm được - lợi_nhuận ( công_ty số 1 không_phải là apple mà là 1 công_ty trung_quốc nhé ) . ",,
236,Overall sentiment,Unspecified,

239,"**> net income from cont. operations : $ 27.2 billion ",,
239,Overall sentiment,Unspecified,

240,"**> country : south korea ",,
240,Overall sentiment,Unspecified,

241,"**> industry : technology hardware , storage and peripherals ",,
241,Overall sentiment,Unspecified,

242,"**> revenue : $ 216.6 billion ",,
242,Overall sentiment,Unspecified,

243,"**có con note 1 vỡ màn giờ vẫn vứt xó nhìn con này không có thích lắm ",,
243,Overall sentiment,Positive,

244,"**mong a e bình_tĩnh không war ở topic này .. ... : d ... ",,
244,Overall sentiment,Unspecified,

245,"**với mình thì note 4 là hàng top điện_thoại của thế_giới , mà đã là top thì mọi so_sánh là khập_khiễng ... ",,
245,Overall sentiment,Unspecified,

246,"**cũng_như ng dùng iphone vậy ... . ",,
246,Overall sentiment,Unspecified,

247,"**huề , hoặc m.u thua 1 trái mình có note 4 , không thì mất 2 tuần lương : ( ",,
247,Overall sentiment,Unspecified,

248,"**nếu giá chỉ 10 chai thì mới gọi là hoàn_thiện ",,
248,Overall sentiment,Positive,

249,"**trời sanh sam 1938 sao còn sanh pô 1975 ( apple ) ",,
249,Overall sentiment,Unspecified,

250,"**thiết_nghĩ là 1 đảng_viên yeu nuoc thì hãy mua máy samsung ",,
250,Overall sentiment,Positive,

251,"**quá chuan phải ko ",,
251,Overall sentiment,Unspecified,

252,"**samsung chỉ đem so với samsung với phiên_bản trước ",,
252,Overall sentiment,Unspecified,

253,"**và chỉ như_thế ",,
253,Overall sentiment,Unspecified,

254,"**thích quá mà hem được mua híc_híc ",,
254,Overall sentiment,Positive,

255,"**đã và đang dùng e nó ... quá tuyệt ",,
255,Overall sentiment,Positive,

256,"**ngoại_trừ hở 4 cạnh viền. còn_lại ok : ) ",,
256,Overall sentiment,Unspecified,

257,"**ngoại_trừ hở 4 cạnh viền. còn_lại ok : ) ",,
257,Overall sentiment,Unspecified,

258,"**bên cellphones ngta tets và kiểm_tra rồi , cái khe đó đâu_có lớn đâu và các máy z2 or z1 của sony cũng có . ",,
258,Overall sentiment,Positive,

259,"**nhưng mắt_thường k thể nhìn đc ",,
259,Overall sentiment,Unspecified,

260,"**điện_thoại đầu_tiên trên thế_giới có chức_năng cà credit card . ",,
260,Overall sentiment,Unspecified,

261,"**tết giảm giá mua là hợp_lí , 18 củ quá chát ",,
261,Overall sentiment,Positive,
261,giá,mua,Positive

262,"**cứ_tưởng đc bóc_tem ",,
262,Overall sentiment,Unspecified,

263,"**phần open in multi window view của máy em k bật on được hiccc . ",,
263,Overall sentiment,Unspecified,

265,"**10 chai , mua đồ_ăn cắp à : ) ",,
265,Overall sentiment,Positive,

266,"**cái title quá chính_xác : d ",,
266,Overall sentiment,Positive,

267,"**đồng_ý với tiêu_đề của chủ thớt : chiếc note hoàn_thiện nhất ( so với samsung note1 , note2 , note3 ) , chứ hoàn_toàn không_phải và không_bao_giờ là chiếc điện_thoại hoàn_thiện nhất . ",,
267,Overall sentiment,Positive,

268,"**làm_gì có cái điện_thoại nào mà gọi là hoàn_thiện nhất được ",,
268,Overall sentiment,Positive,

269,"**đắt hơn note 3 1tr nhưng đáng_giá hơn 6,9 lần . ",,
269,Overall sentiment,Unspecified,

270,"**đó là so với riêng note 3 . ",,
270,Overall sentiment,Unspecified,

271,"**mọi_thứ gần_như rất ổn , trừ cái chỗ camera thì quá xấu ",,
271,Overall sentiment,Neutral,
271,camera,xấu,Negative

272,"**cùng_lắm là hoàn_thiện nhất ở thời_điểm hiện_tại thôi thớt : v ",,
272,Overall sentiment,Positive,

273,"**các bác chỉ cách cho e với ... e k bật on được ạ . ",,
273,Overall sentiment,Unspecified,

274,"**máy nào_cũng hở nhưng note 4 hở nhất . ",,
274,Overall sentiment,Unspecified,

275,"**cái nắp lưng nhựa năm_nay a samsung có chiêu mài mỏng lét áp vào khung nhôm nên cảm_giác khít và chặt ché hơn_hẳn mọi năm . ",,
275,Overall sentiment,Unspecified,

276,"**ngon toàn_tập .. ... ... ... ... ... ... ... . .chờ giá mềm ! ",,
276,Overall sentiment,Positive,

278,"**bóc_tem được gì ? ",,
278,Overall sentiment,Unspecified,

279,"**hay chỉ để chứng_tỏ mình kéo nhanh nhất mà chả đọc được gì ? ",,
279,Overall sentiment,Positive,

280,"**một phong_cách pha_tạp rất hoàn_hảo : nắp lưng giống bb , cạnh giống ip5 , mặt trước_sau vẫn ss. : p ",,
280,Overall sentiment,Unspecified,

281,"**có tiền thì hốt ngay em này . ",,
281,Overall sentiment,Unspecified,

282,"**không đắng đo : ) ",,
282,Overall sentiment,Unspecified,

283,"**"" bò , cứ lo bò trắng_răng "" ",,
283,Overall sentiment,Unspecified,

284,"**note 4 tất_nhiên là chiếc note tốt nhất rồi ",,
284,Overall sentiment,Positive,

285,"**em đang xài note 3 và đang rất hài_lòng , phần_mềm samsung sẽ là thừa thải với ai ít khám_phá và rất đầy_đủ nếu ai có nhu_cầu . ",,
285,Overall sentiment,Positive,

286,"**đang_cố kiếm tiền sang năm mua note 4 ",,
286,Overall sentiment,Positive,

287,"**mấy hôm_nay ngày_nào cũng có 1 bài_nói về note 4 . ",,
287,Overall sentiment,Unspecified,

288,"**note 4 là 1 chiếc điện_thoại tuyệt_vời , điều_nay không_ai phủ nhận . ",,
288,Overall sentiment,Positive,

289,"**nhưng có 1 sự_thật_là nó không_phải là chiếc điện_thoại dành cho đại_đa_số mọi_người . ",,
289,Overall sentiment,Unspecified,

290,"**tinh_tế cũng_nên quan_tâm đến nhu_cầu của mọi_người bây h là các smartphone giá bình_dân . ",,
290,Overall sentiment,Positive,

291,"**lumia 730 , ss prime ra_mắt đã_lâu nhưng mình chưa thấy có bài đánh_giá nào về những chiếc điện_thoại tầm_trung này , trong_khi đó nó lại là lựa_chọn của hầu_hết các bạn trẻ bây h . ",,
291,Overall sentiment,Unspecified,

292,"**tinh_tế dành quá_nhiều thời_gian cho những smartphone cao_cấp rồi . ",,
292,Overall sentiment,Positive,

293,"**chỉ cần nhìn mặt_sau là biết của samsung ",,
293,Overall sentiment,Unspecified,

294,"**bài_viết rất hay . ",,
294,Overall sentiment,Unspecified,

295,"**note bao_giờ cũng đc hoàn_thiện rất tốt . ",,
295,Overall sentiment,Positive,

296,"**ps : lần trc có 2 bài đánh_giá 6 vs 6 + viết rất dài . ",,
296,Overall sentiment,Positive,

297,"**các thím nói mod ko ra_gì . ",,
297,Overall sentiment,Unspecified,

298,"**bây_giờ mod viết thế này mấy thím thích gây war hài_lòng chưa hay vẫn ngứa : d ",,
298,Overall sentiment,Positive,

299,"**đã toàn_là máy đt fs của các hãng thì phải nói là nhìn thật đã. : "" ) ",,
299,Overall sentiment,Unspecified,

300,"**ngoài @ duy luân thì @ sonlazio là người có những bài_viết khách_quan và trung_thực , chi_tiết nhất mà mình thích đọc : ) ",,
300,Overall sentiment,Positive,

301,"**vẫn chung_tình vs em 5s thôi ! ",,
301,Overall sentiment,Unspecified,

302,"**giá chát quá thôi chứ nhìn_chung là ổn ",,
302,Overall sentiment,Neutral,
302,giá,chát,Negative

303,"**bài review nào của anh sơn cũng cực kì chi_tiết với công_phu : ) ",,
303,Overall sentiment,Unspecified,

304,"**mình nhớ không nhầm thì ấn và giữ nút trở_lại ( back ) là bật được bạn ",,
304,Overall sentiment,Unspecified,

305,"**mình nhớ không nhầm thì ấn và giữ nút trở_lại ( back ) là bật được bạn ",,
305,Overall sentiment,Unspecified,

306,"**vẫn biết là máy thử_nghiệm mà sao pin tệ quá nhể : eek : ",,
306,Overall sentiment,Negative,
306,pin,tệ,Negative

307,"**thế_còn ip6 theo ý_kiến của bạn thì đặt tiêu_đề như_thế_nào ",,
307,Overall sentiment,Unspecified,

308,"**cứ đến trang 5 hoặc 6 là bắt_đầu có tranh_luận nảy_lửa : ) ",,
308,Overall sentiment,Unspecified,

309,"**bản_thân apple cũng luôn chỉ nói "" chiếc iphone tốt nhất thôi "" , chả có cái phone nào_là tốt nhất chung_chung cả , tốt nhất với cá_nhân nào_đó thì có . ",,
309,Overall sentiment,Positive,
309,iphone,tốt,Positive

310,"**à mà tốt nhất đừng nhắc_đến iphone ở_đây , lại chuẩn_bị loạn lên cho mà xem ",,
310,Overall sentiment,Positive,

311,"**mod sonlazio với duyluan viết bài tôi thấy là tốt nhất trong tinh_tế . ",,
311,Overall sentiment,Positive,

312,"**còn các mod khác tôi thấy chỉ làm_tròn vai thôi , người thì đánh_giá hơi chủ_quan , thiên_vị , người thì hời_hợt , người thì cái tật nói_ngọng mãi không sửa được . ",,
312,Overall sentiment,Unspecified,

313,"**các bác cứ có mấy bài nhận_xét chi_tiết kiểu này làm em ham_hố . ",,
313,Overall sentiment,Unspecified,

314,"**là fan note và đang dùng note 2 , nhìn mà cứ muốn đổi mà kinh_tế không cho_phép ",,
314,Overall sentiment,Unspecified,

315,"**nói_ngọng thì phải chịu sữa mới được . ",,
315,Overall sentiment,Positive,

316,"**mình đã thử mà không được : ( ",,
316,Overall sentiment,Unspecified,

317,"**: confused : công_nghệ thay_đổi luôn_luôn và các bạn đam_mê công_nghệ luôn phải đối mặt với tình_trạng có_thể lạc_hậu bất_kỳ lúc_nào . ",,
317,Overall sentiment,Unspecified,

318,"**thật_sự ngày_xưa màn_hình sony z rất xấu , nhưng đến z1 , z2 thì tiến_bộ rõ_rệt ",,
318,Overall sentiment,Negative,
318,sony,xấu,Negative

319,"**màn hình note và galaxy s trước bị cho là màu rực nhưng giờ màn lcd của lg còn rực hơn ",,
319,Overall sentiment,Negative,
319,lg,rực,Negative

320,"**màn 2k của g3 mọi_người nghĩ là sẽ vượt trội_hơn màn full hd nhưng nhiều người lại than là ám vàng nặng . ",,
320,Overall sentiment,Positive,
320,full hd,nhiều,Positive

321,"**trong bài này thì mod bảo màn note bị ám nhẹ một lớp mờ ( thực_sự thì từ dạo note 3 mình đã thấy hiện_tượng này rồi ) . ",,
321,Overall sentiment,Positive,

322,"**nói_chung giờ ko biết màn_hình nào đẹp hơn màn nào_nữa ",,
322,Overall sentiment,Positive,
322,màn_hình,đẹp,Positive

323,"**thế đem_qua so_sánh vs ip cho tụi mày gây war gõ phím_nhé ",,
323,Overall sentiment,Unspecified,

324,"**: dtạm thời chúng_ta công_nhận note 4 đứng_đầu android và thứ 2/3 lần_lượt là z3/z3c . ",,
324,Overall sentiment,Unspecified,

325,"**sau_đó đến cac thím m8 và g3 . ",,
325,Overall sentiment,Unspecified,

326,"**vậy_là đủ tứ_đại thiên_vương của android rồi : sung - sony - htc - lg . ",,
326,Overall sentiment,Unspecified,

327,"**: rolleyes : 6 tháng đầu_năm sau sẽ ntn đây ? ",,
327,Overall sentiment,Unspecified,

328,"**sản_phẩm càng ngày_càng ngon , anwm sau còn được buff ăn l tập_thể nữa . ",,
328,Overall sentiment,Positive,

329,"**vỏ của ip6 thích_hợp cho màn_hình to , nhưng thiết_kế của 5s lại quá đẹp . ",,
329,Overall sentiment,Neutral,
329,màn_hình,to,Negative
329,5s,đẹp,Positive

330,"**đã yêu thì cũng phải học chấp_nhận sự_hơi xấu của 6 so với 5s nữa anh ",,
330,Overall sentiment,Neutral,

331,"**câu_cuối của bác chuẩn , nhưng mà không được đâu , mới 3 trang_đầu đã có gạch_rồi , mà tinhte cũng cần view , thôi vẫn sẽ cứ loạn lên thôi . ",,
331,Overall sentiment,Positive,

332,"**mod đúng hay admin đúng ... : v ",,
332,Overall sentiment,Unspecified,

333,"**tự_ty à , tự_kỷ à ! ",,
333,Overall sentiment,Unspecified,

334,"**thích war à ? ? ? ",,
334,Overall sentiment,Positive,

335,"**sao phải xoắn thế ! ",,
335,Overall sentiment,Unspecified,

336,"**bất_lực à ? ",,
336,Overall sentiment,Unspecified,

337,"**ăn với nói ! ",,
337,Overall sentiment,Unspecified,

338,"**phải công_nhận note là dòng đáng mua nhất của sam , về mọi_mặt , s giá chát + gà ! s phải sau note 1 cấp mới đúng giá_trị sử_dụng ",,
338,Overall sentiment,Positive,
338,giá,chát,Negative

339,"**ăn tết xong , nếu n4 docomo loại 2 sim tầm ~ 9tr thì sẽ múc e nó , chốt hạ là_vậy ",,
339,Overall sentiment,Unspecified,

340,"**pin hơn 4h tẹo là rất bình_thường , riêng về pin thua đứt ip6 + ! ",,
340,Overall sentiment,Unspecified,

342,"**đã xài note 2 , chán chuyển lg g2 . ",,
342,Overall sentiment,Unspecified,

343,"**giờ yên_lòng với g2 và đợi_thời đủ gạo sẽ rinh iphone cho nó lành các bác ạ . ",,
343,Overall sentiment,Unspecified,

344,"**@ sonlazio note 4 chip exynos dùng cảm biến ảnh isocell mà , chip 805 thì xài của sony ",,
344,Overall sentiment,Unspecified,

345,"**không phải là ss mài mỏng mà là ss thiết_kế mỏng = ) ) ",,
345,Overall sentiment,Unspecified,

346,"**bạn chả hiểu gì về gia_công chế_tạo cả : p ",,
346,Overall sentiment,Unspecified,

347,"**hàng_chôm_chôm : ) ",,
347,Overall sentiment,Unspecified,

348,"**giá xtay dễ_chịu hơn 18 triệu nhiều ",,
348,Overall sentiment,Positive,
348,giá,dễ_chịu,Positive

349,"**https : //www.nhattao.com // threads // note4 - quoc-te-nguyen - seal.3504270/ ",,
349,Overall sentiment,Unspecified,

350,"**mọi_thứ đều ngon , trừ mỗi cái cut diamond ",,
350,Overall sentiment,Positive,

351,"**mình rất ko thích anh sam với cái_vỏ nhựa rẽ tiền , và chưa_bao_giờ sài smartphone samúng , nhưng khi note 4 ra mình là người đầu_tiên mua nó . ",,
351,Overall sentiment,Positive,

352,"**mua ngày 23/10 và đến hôm_nay là đã 3 ngày trên tay rồi mà vẩn còn nhiều thứ để vọc . ",,
352,Overall sentiment,Positive,

353,"**đúng là phần_mềm còn hơi rối nhưng mức_độ hoàn_thiện của sản_phẩm là ok. ơ nhưng_mà giá em này hiện_nay chỉ ~ 17tr thui mà ",,
353,Overall sentiment,Positive,

354,"**đã từng dùng tất_cả các thể loại và ký hợp_đồng dài_hạn với dòng note của samsung . ",,
354,Overall sentiment,Unspecified,

355,"**bh có ip6 + chứ trước_đây một tay ip một tay ipad thấy mệt . ",,
355,Overall sentiment,Unspecified,

356,"**cầm con note3 cảm_thấy thay_thế được ip + ipad . ",,
356,Overall sentiment,Unspecified,

357,"**các sp của apple thì có độ hoàn_thiện rất xuất_sắc , phần_cứng phần_mềm được tối_ưu_hóa cao nhưng hệ_điều_hành đóng của apple lại gây khó cho người_sử_dụng rất nhiều . ",,
357,Overall sentiment,Positive,
357,apple,khó,Negative

358,"**đang_dùng note 3 , rajasthan ok và đợi note4 giảm_giá . ",,
358,Overall sentiment,Unspecified,

359,"**18 tr có_vẻ k hợp_lý ",,
359,Overall sentiment,Positive,

360,"**macbook ko phải con nào màu cũng chuẩn ông hiệp so với lap làm_gì , kiếm cái tivi màu_chuẩn mà so sáng ấy chứ : ) ",,
360,Overall sentiment,Unspecified,

361,"**iphone 5 là chiếc điện_thoại khá hoàn_thiện của apple , và giờ note 4 cũng_vậy : d ",,
361,Overall sentiment,Unspecified,

362,"**tưởng note 4 ê xỳ nốt xài cảm_biến isocell chứ mod , snap mới xài cảm_biến sony . ",,
362,Overall sentiment,Positive,

363,"**ôi , nikon df ... . ",,
363,Overall sentiment,Unspecified,

364,"**sai ngay từ tít , chiếc note 5 mà ra tốt_hơn chiếc này thì sao , đùa với bạn_đọc công_nghệ ah ? ",,
364,Overall sentiment,Unspecified,

365,"**de lai con note 1 gia tot di bac : ) ",,
365,Overall sentiment,Unspecified,

366,"**diển đàn bựa ra vì những comment của bác_đấy ",,
366,Overall sentiment,Unspecified,

367,"**dù ko thích samesung nhưng_mà phải công_nhận camera note 4 này khá là ngon_đó . ",,
367,Overall sentiment,Positive,

368,"**mie sony làm_gì đi chứ : d . ",,
368,Overall sentiment,Unspecified,

369,"**mảng chụp_hình ngon vậy_mà đưa vô phone chụp ko thể gọi_là quá xuất_sắc dc . ",,
369,Overall sentiment,Positive,

370,"**mấy dòng cybershot trc thì còn ok. xperia sau_này thấy có_vẻ đuối quá . ",,
370,Overall sentiment,Unspecified,

371,"**để tới ra tết âm_lịch là đổi ngang dc con ip5s ngay . ",,
371,Overall sentiment,Unspecified,

372,"**hơn_nữa lúc_đó thì note 4 cũng lên android 5 . ",,
372,Overall sentiment,Unspecified,

373,"**lollipop , tối_ưu phần_mềm hơn , pin tốt_hơn , mượt hơn . ",,
373,Overall sentiment,Positive,
373,pin,tốt_hơn,Positive

374,"**lúc_đó đổi cũng chưa muộn . ",,
374,Overall sentiment,Unspecified,

375,"**em đang có note 4 snapdragon bản_quốc_tế của nhà mạng at & t.anh em nào có nhu_cầu thì pm em nhé.giá cả rất hấp_dẫn ( chỉ có 1 cái thôi nhé ) .em được ng nhà mua cho mà thấy không hợp nên muốn bán ( imei đầy_đủ nên cac bác yên_tâm nhé , test thoải_mái ) ",,
375,Overall sentiment,Positive,

376,"**bán note 3 , ai mua hem ? ",,
376,Overall sentiment,Positive,
376,note 3,mua,Positive

377,"**đi đâu_cũng thấy bạn này đưa cái doanh_số ra khè , sản_phẩm được nhiều người sử_dụng nhất chưa_chắc là sản_phẩm tốt nhất nhé_bạn . ",,
377,Overall sentiment,Positive,

378,"**em đang chờ màu gold ra để đổi thôi , tự_nhiên máu màu gold quá. hehe ",,
378,Overall sentiment,Unspecified,

379,"**hoàn_thiện tốt thì phải kể_tới lumia 930 , xperia z3 , iphone 6 chứ note 4 chưa có cửa vì samsung họ chưa có nhiều kinh_nghiệm ",,
379,Overall sentiment,Positive,

380,"**cũng giống như mỗi khi bắt ma túy nếu số_lượng lớn thì đều nói . ",,
380,Overall sentiment,Positive,

381,"**đây là vụ .. ... vs số_lượng lớn nhất từ trước tới nay. h đến note 4 cũng phán y_như notwe3 năm_ngoái . ",,
381,Overall sentiment,Positive,

382,"**sang_năm nếu_có not5 cũng_vậy ",,
382,Overall sentiment,Unspecified,

383,"**cứ đua cấu hình mình chỉ cần như note 3 là okê . ",,
383,Overall sentiment,Unspecified,

384,"**cải_thiện pin thì ủng_hộ ... . ",,
384,Overall sentiment,Unspecified,

385,"**18 chai . ",,
385,Overall sentiment,Unspecified,

386,"**quá mặn ? ",,
386,Overall sentiment,Unspecified,

387,"**chỉ tranh_thủ anti được chỗ nào thì anti thôi_à ",,
387,Overall sentiment,Unspecified,

388,"**công_nhận là note 4 cải_tiến nhiều nhất là thiết_kế nhìn sang hơn_hẳn đặc_biệt là màu_đen . ",,
388,Overall sentiment,Positive,
388,note 4,cải_tiến,Positive

389,"**mình cũng đồng_ý là không_thể có chiếc điện_thoại nào_là hoàn_hảo nhất được vì thời_gian sẽ làm độ hoàn_hảo của 1 sản_phẩm thụt_lùi_lại , năm trước nó là hoàn_hảo nhất thì năm_nay không_phải là nó nữa . ",,
389,Overall sentiment,Unspecified,

390,"**một chiếc điện_thoại tốt , đáng mua nếu có tiền . ",,
390,Overall sentiment,Positive,

391,"**hế cái hãng có doanh_số cao nhất ấy nó có bố_thí cho bạn đồng nào ko mà bạn tỏ_ra tự_hào vì doanh_số của nó như_vậy ? lúc bạn chết nó có khóc cho bạn ko ? cái điện_thoại ta chỉ đánh_giá qua tác_dụng mà nó mang lại cho mình , thấy phù_hợp với nhu_cầu thì mình khen , ko nên mù_quáng như_vậy bạn ạ . ",,
391,Overall sentiment,Positive,

392,"**mình thích chất_liệu da mặt_sau quá , giản_dị nhưng sang_trọng , quý_phái : ) ",,
392,Overall sentiment,Positive,

393,"**thâm vcc . ",,
393,Overall sentiment,Unspecified,

394,"**note 4 năm_nay quá tuyệt , nhưng mà em hy_vọng vào note 5 , năm_sau nhất_định sẽ có_nhiều đột_phá , quan_trọng là lúc_ấy thì em mới có đủ lúa để mua : d ",,
394,Overall sentiment,Positive,
394,note 4,tuyệt,Positive

395,"**18 chai mà vẫn giả_da à anh sam làm nguyên_khối như ip cho sang ... ",,
395,Overall sentiment,Unspecified,

396,"**thích thì nhích , mai bán_nhà làm con coi . ",,
396,Overall sentiment,Positive,

398,"**vãi điểm bechmark hơn s5 bản vn có tí_xíu s5 42000 rồi ",,
398,Overall sentiment,Unspecified,

399,"**tuyệt_vời nhất của note 4 là giảm_giá nhanh , bao_nhiêu chú chờ ..sẵn ... xách tay để_xúc ",,
399,Overall sentiment,Positive,
399,note 4,nhanh,Positive

400,"**con này chắc ai cho mình dùng tạm thôi . ",,
400,Overall sentiment,Unspecified,

401,"**to quá . ",,
401,Overall sentiment,Negative,

402,"**thua 1280 huyễn_thoại của mình . ",,
402,Overall sentiment,Unspecified,

403,"**hay đấy. ngắn_gọn hơn ",,
403,Overall sentiment,Unspecified,

404,"**cái này mình cũng có thông_tin như bác , nên tính hỏi_lại chủ thớt ☺ ",,
404,Overall sentiment,Unspecified,

405,"**đã vọc qua rất nhiều máy và hệ_điều_hành , mình nhận_thấy điểm_yếu nhất của note 4 đó là có quá_nhiều cái mới_mẻ để mình tìm_hiểu : d nhất là cây_bút spen . ",,
405,Overall sentiment,Positive,

406,"**bài đánh_giá rất hay và thật , không như nhiều mod áp_đặt ý_kiến chủ_quan của mình vào bài đánh_giá hoặc so_sánh , gây không ít war ",,
406,Overall sentiment,Neutral,

407,"**cập_nhật thông_tin chậm vậy_bạn . ",,
407,Overall sentiment,Negative,

408,"**y_như rằng con nào được anh_em tinh_tế khen nhiêu thì bán_ế hơn bình_thường , còn con nào bj chê là bán tốt hơn bình thường. thế mới thấy đời nó khác_xa so với diễn_đàn . ",,
408,Overall sentiment,Positive,

